0.900027
1280
-0.499609	1	0.940994	1	
-0.498828	1	0.940597	1	
-0.498047	1	0.940202	1	
-0.497266	1	0.939808	1	
-0.496484	1	0.939416	1	
-0.495703	1	0.939025	1	
-0.494922	1	0.938636	1	
-0.494141	1	0.938248	1	
-0.493359	1	0.937862	1	
-0.492578	1	0.937478	1	
-0.491797	1	0.937096	1	
-0.491016	1	0.936715	1	
-0.490234	1	0.936336	1	
-0.489453	1	0.935959	1	
-0.488672	1	0.935584	1	
-0.487891	1	0.935209	1	
-0.487109	1	0.934837	1	
-0.486328	1	0.934465	1	
-0.485547	1	0.934096	1	
-0.484766	1	0.933727	1	
-0.483984	1	0.93336	1	
-0.483203	1	0.932994	1	
-0.482422	1	0.932629	1	
-0.481641	1	0.932266	1	
-0.480859	1	0.931904	1	
-0.480078	1	0.931544	1	
-0.479297	1	0.931186	1	
-0.478516	1	0.930829	1	
-0.477734	1	0.930473	1	
-0.476953	1	0.93012	1	
-0.476172	1	0.929769	1	
-0.475391	1	0.929419	1	
-0.474609	1	0.929072	1	
-0.473828	1	0.928727	1	
-0.473047	1	0.928384	1	
-0.472266	1	0.928042	1	
-0.471484	1	0.927703	1	
-0.470703	1	0.927366	1	
-0.469922	1	0.92703	1	
-0.469141	1	0.926697	1	
-0.468359	1	0.926365	1	
-0.467578	1	0.926034	1	
-0.466797	1	0.925705	1	
-0.466016	1	0.925378	1	
-0.465234	1	0.925051	1	
-0.464453	1	0.924727	1	
-0.463672	1	0.924404	1	
-0.462891	1	0.924082	1	
-0.462109	1	0.923761	1	
-0.461328	1	0.923443	1	
-0.460547	1	0.923126	1	
-0.459766	1	0.92281	1	
-0.458984	1	0.922497	1	
-0.458203	1	0.922186	1	
-0.457422	1	0.921876	1	
-0.456641	1	0.921569	1	
-0.455859	1	0.921264	1	
-0.455078	1	0.920962	1	
-0.454297	1	0.920662	1	
-0.453516	1	0.920364	1	
-0.452734	1	0.920068	1	
-0.451953	1	0.919775	1	
-0.451172	1	0.919484	1	
-0.450391	1	0.919196	1	
-0.449609	1	0.918909	1	
-0.448828	1	0.918625	1	
-0.448047	1	0.918342	1	
-0.447266	1	0.918061	1	
-0.446484	1	0.917782	1	
-0.445703	1	0.917504	1	
-0.444922	1	0.917228	1	
-0.444141	1	0.916953	1	
-0.443359	1	0.91668	1	
-0.442578	1	0.916408	1	
-0.441797	1	0.916138	1	
-0.441016	1	0.915869	1	
-0.440234	1	0.915602	1	
-0.439453	1	0.915337	1	
-0.438672	1	0.915074	1	
-0.437891	1	0.914812	1	
-0.437109	1	0.914553	1	
-0.436328	1	0.914296	1	
-0.435547	1	0.914041	1	
-0.434766	1	0.913789	1	
-0.433984	1	0.91354	1	
-0.433203	1	0.913293	1	
-0.432422	1	0.913048	1	
-0.431641	1	0.912807	1	
-0.430859	1	0.912568	1	
-0.430078	1	0.912332	1	
-0.429297	1	0.912098	1	
-0.428516	1	0.911867	1	
-0.427734	1	0.911638	1	
-0.426953	1	0.911412	1	
-0.426172	1	0.911188	1	
-0.425391	1	0.910966	1	
-0.424609	1	0.910746	1	
-0.423828	1	0.910528	1	
-0.423047	1	0.910312	1	
-0.422266	1	0.910097	1	
-0.421484	1	0.909884	1	
-0.420703	1	0.909672	1	
-0.419922	1	0.909462	1	
-0.419141	1	0.909254	1	
-0.418359	1	0.909046	1	
-0.417578	1	0.908841	1	
-0.416797	1	0.908637	1	
-0.416016	1	0.908434	1	
-0.415234	1	0.908234	1	
-0.414453	1	0.908035	1	
-0.413672	1	0.907839	1	
-0.412891	1	0.907644	1	
-0.412109	1	0.907452	1	
-0.411328	1	0.907263	1	
-0.410547	1	0.907076	1	
-0.409766	1	0.906892	1	
-0.408984	1	0.90671	1	
-0.408203	1	0.906532	1	
-0.407422	1	0.906357	1	
-0.406641	1	0.906184	1	
-0.405859	1	0.906015	1	
-0.405078	1	0.905849	1	
-0.404297	1	0.905686	1	
-0.403516	1	0.905526	1	
-0.402734	1	0.905369	1	
-0.401953	1	0.905215	1	
-0.401172	1	0.905063	1	
-0.400391	1	0.904914	1	
-0.399609	1	0.904768	1	
-0.398828	1	0.904623	1	
-0.398047	1	0.904481	1	
-0.397266	1	0.904342	1	
-0.396484	1	0.904204	1	
-0.395703	1	0.904068	1	
-0.394922	1	0.903933	1	
-0.394141	1	0.9038	1	
-0.393359	1	0.903669	1	
-0.392578	1	0.903539	1	
-0.391797	1	0.903411	1	
-0.391016	1	0.903283	1	
-0.390234	1	0.903158	1	
-0.389453	1	0.903033	1	
-0.388672	1	0.90291	1	
-0.387891	1	0.902789	1	
-0.387109	1	0.902669	1	
-0.386328	1	0.902551	1	
-0.385547	1	0.902434	1	
-0.384766	1	0.902319	1	
-0.383984	1	0.902207	1	
-0.383203	1	0.902096	1	
-0.382422	1	0.901988	1	
-0.381641	1	0.901882	1	
-0.380859	1	0.901779	1	
-0.380078	1	0.901678	1	
-0.379297	1	0.901581	1	
-0.378516	1	0.901486	1	
-0.377734	1	0.901394	1	
-0.376953	1	0.901306	1	
-0.376172	1	0.901221	1	
-0.375391	1	0.901139	1	
-0.374609	1	0.901061	1	
-0.373828	1	0.900987	1	
-0.373047	1	0.900916	1	
-0.372266	1	0.900848	1	
-0.371484	1	0.900785	1	
-0.370703	1	0.900724	1	
-0.369922	1	0.900668	1	
-0.369141	1	0.900615	1	
-0.368359	1	0.900566	1	
-0.367578	1	0.90052	1	
-0.366797	1	0.900478	1	
-0.366016	1	0.900438	1	
-0.365234	1	0.900402	1	
-0.364453	1	0.900369	1	
-0.363672	1	0.90034	1	
-0.362891	1	0.900312	1	
-0.362109	1	0.900288	1	
-0.361328	1	0.900266	1	
-0.360547	1	0.900247	1	
-0.359766	1	0.90023	1	
-0.358984	1	0.900215	1	
-0.358203	1	0.900202	1	
-0.357422	1	0.900191	1	
-0.356641	1	0.900181	1	
-0.355859	1	0.900173	1	
-0.355078	1	0.900167	1	
-0.354297	1	0.900162	1	
-0.353516	1	0.900157	1	
-0.352734	1	0.900154	1	
-0.351953	1	0.900152	1	
-0.351172	1	0.90015	1	
-0.350391	1	0.900149	1	
-0.349609	1	0.900149	1	
-0.348828	1	0.900148	1	
-0.348047	1	0.900148	1	
-0.347266	1	0.900148	1	
-0.346484	1	0.900148	1	
-0.345703	1	0.900149	1	
-0.344922	1	0.900151	1	
-0.344141	1	0.900153	1	
-0.343359	1	0.900157	1	
-0.342578	1	0.900162	1	
-0.341797	1	0.900168	1	
-0.341016	1	0.900177	1	
-0.340234	1	0.900188	1	
-0.339453	1	0.900202	1	
-0.338672	1	0.900218	1	
-0.337891	1	0.900237	1	
-0.337109	1	0.90026	1	
-0.336328	1	0.900286	1	
-0.335547	1	0.900316	1	
-0.334766	1	0.90035	1	
-0.333984	1	0.900388	1	
-0.333203	1	0.90043	1	
-0.332422	1	0.900476	1	
-0.331641	1	0.900527	1	
-0.330859	1	0.900582	1	
-0.330078	1	0.900641	1	
-0.329297	1	0.900705	1	
-0.328516	1	0.900773	1	
-0.327734	1	0.900845	1	
-0.326953	1	0.900921	1	
-0.326172	1	0.901	1	
-0.325391	1	0.901083	1	
-0.324609	1	0.901169	1	
-0.323828	1	0.901258	1	
-0.323047	1	0.90135	1	
-0.322266	1	0.901444	1	
-0.321484	1	0.90154	1	
-0.320703	1	0.901638	1	
-0.319922	1	0.901737	1	
-0.319141	1	0.901837	1	
-0.318359	1	0.901939	1	
-0.317578	1	0.902041	1	
-0.316797	1	0.902145	1	
-0.316016	1	0.902249	1	
-0.315234	1	0.902354	1	
-0.314453	1	0.90246	1	
-0.313672	1	0.902566	1	
-0.312891	1	0.902674	1	
-0.312109	1	0.902783	1	
-0.311328	1	0.902894	1	
-0.310547	1	0.903006	1	
-0.309766	1	0.903121	1	
-0.308984	1	0.903238	1	
-0.308203	1	0.903357	1	
-0.307422	1	0.90348	1	
-0.306641	1	0.903605	1	
-0.305859	1	0.903734	1	
-0.305078	1	0.903866	1	
-0.304297	1	0.904002	1	
-0.303516	1	0.904142	1	
-0.302734	1	0.904285	1	
-0.301953	1	0.904431	1	
-0.301172	1	0.904581	1	
-0.300391	1	0.904735	1	
-0.299609	1	0.904891	1	
-0.298828	1	0.90505	1	
-0.298047	1	0.905211	1	
-0.297266	1	0.905375	1	
-0.296484	1	0.905541	1	
-0.295703	1	0.905708	1	
-0.294922	1	0.905877	1	
-0.294141	1	0.906047	1	
-0.293359	1	0.906219	1	
-0.292578	1	0.906391	1	
-0.291797	1	0.906565	1	
-0.291016	1	0.90674	1	
-0.290234	1	0.906917	1	
-0.289453	1	0.907095	1	
-0.288672	1	0.907275	1	
-0.287891	1	0.907456	1	
-0.287109	1	0.90764	1	
-0.286328	1	0.907827	1	
-0.285547	1	0.908016	1	
-0.284766	1	0.908208	1	
-0.283984	1	0.908402	1	
-0.283203	1	0.9086	1	
-0.282422	1	0.908801	1	
-0.281641	1	0.909005	1	
-0.280859	1	0.909212	1	
-0.280078	1	0.909422	1	
-0.279297	1	0.909634	1	
-0.278516	1	0.909849	1	
-0.277734	1	0.910066	1	
-0.276953	1	0.910286	1	
-0.276172	1	0.910507	1	
-0.275391	1	0.91073	1	
-0.274609	1	0.910954	1	
-0.273828	1	0.91118	1	
-0.273047	1	0.911407	1	
-0.272266	1	0.911636	1	
-0.271484	1	0.911866	1	
-0.270703	1	0.912098	1	
-0.269922	1	0.912332	1	
-0.269141	1	0.912568	1	
-0.268359	1	0.912805	1	
-0.267578	1	0.913045	1	
-0.266797	1	0.913288	1	
-0.266016	1	0.913533	1	
-0.265234	1	0.91378	1	
-0.264453	1	0.91403	1	
-0.263672	1	0.914283	1	
-0.262891	1	0.914538	1	
-0.262109	1	0.914796	1	
-0.261328	1	0.915056	1	
-0.260547	1	0.915318	1	
-0.259766	1	0.915582	1	
-0.258984	1	0.915848	1	
-0.258203	1	0.916116	1	
-0.257422	1	0.916386	1	
-0.256641	1	0.916657	1	
-0.255859	1	0.91693	1	
-0.255078	1	0.917205	1	
-0.254297	1	0.917481	1	
-0.253516	1	0.917759	1	
-0.252734	1	0.918038	1	
-0.251953	1	0.91832	1	
-0.251172	1	0.918604	1	
-0.250391	1	0.918889	1	
-0.249609	1	0.919177	1	
-0.248828	1	0.919467	1	
-0.248047	1	0.91976	1	
-0.247266	1	0.920054	1	
-0.246484	1	0.920351	1	
-0.245703	1	0.92065	1	
-0.244922	1	0.920951	1	
-0.244141	1	0.921254	1	
-0.243359	1	0.921559	1	
-0.242578	1	0.921865	1	
-0.241797	1	0.922173	1	
-0.241016	1	0.922483	1	
-0.240234	1	0.922795	1	
-0.239453	1	0.923108	1	
-0.238672	1	0.923423	1	
-0.237891	1	0.92374	1	
-0.237109	1	0.924058	1	
-0.236328	1	0.924378	1	
-0.235547	1	0.9247	1	
-0.234766	1	0.925024	1	
-0.233984	1	0.92535	1	
-0.233203	1	0.925678	1	
-0.232422	1	0.926008	1	
-0.231641	1	0.92634	1	
-0.230859	1	0.926673	1	
-0.230078	1	0.927009	1	
-0.229297	1	0.927346	1	
-0.228516	1	0.927685	1	
-0.227734	1	0.928025	1	
-0.226953	1	0.928368	1	
-0.226172	1	0.928712	1	
-0.225391	1	0.929057	1	
-0.224609	1	0.929404	1	
-0.223828	1	0.929753	1	
-0.223047	1	0.930104	1	
-0.222266	1	0.930456	1	
-0.221484	1	0.930809	1	
-0.220703	1	0.931165	1	
-0.219922	1	0.931522	1	
-0.219141	1	0.931881	1	
-0.218359	1	0.932241	1	
-0.217578	1	0.932604	1	
-0.216797	1	0.932968	1	
-0.216016	1	0.933333	1	
-0.215234	1	0.933701	1	
-0.214453	1	0.934069	1	
-0.213672	1	0.93444	1	
-0.212891	1	0.934812	1	
-0.212109	1	0.935185	1	
-0.211328	1	0.93556	1	
-0.210547	1	0.935937	1	
-0.209766	1	0.936315	1	
-0.208984	1	0.936694	1	
-0.208203	1	0.937075	1	
-0.207422	1	0.937458	1	
-0.206641	1	0.937842	1	
-0.205859	1	0.938228	1	
-0.205078	1	0.938615	1	
-0.204297	1	0.939003	1	
-0.203516	1	0.939394	1	
-0.202734	1	0.939785	1	
-0.201953	1	0.940178	1	
-0.201172	1	0.940573	1	
-0.200391	1	0.940969	1	
-0.199609	1	0.941366	1	
-0.198828	1	0.941765	1	
-0.198047	1	0.942165	1	
-0.197266	1	0.942566	1	
-0.196484	1	0.942969	1	
-0.195703	1	0.943374	1	
-0.194922	1	0.943779	1	
-0.194141	1	0.944186	1	
-0.193359	1	0.944594	1	
-0.192578	1	0.945004	1	
-0.191797	1	0.945415	1	
-0.191016	1	0.945827	1	
-0.190234	1	0.946241	1	
-0.189453	1	0.946656	1	
-0.188672	1	0.947072	1	
-0.187891	1	0.94749	1	
-0.187109	1	0.947908	1	
-0.186328	1	0.948328	1	
-0.185547	1	0.94875	1	
-0.184766	1	0.949172	1	
-0.183984	1	0.949596	1	
-0.183203	1	0.950021	1	
-0.182422	1	0.950447	1	
-0.181641	1	0.950874	1	
-0.180859	1	0.951303	1	
-0.180078	1	0.951732	1	
-0.179297	1	0.952163	1	
-0.178516	1	0.952595	1	
-0.177734	1	0.953028	1	
-0.176953	1	0.953463	1	
-0.176172	1	0.953898	1	
-0.175391	1	0.954334	1	
-0.174609	1	0.954772	1	
-0.173828	1	0.955211	1	
-0.173047	1	0.955651	1	
-0.172266	1	0.956091	1	
-0.171484	1	0.956533	1	
-0.170703	1	0.956976	1	
-0.169922	1	0.95742	1	
-0.169141	1	0.957865	1	
-0.168359	1	0.958311	1	
-0.167578	1	0.958758	1	
-0.166797	1	0.959206	1	
-0.166016	1	0.959655	1	
-0.165234	1	0.960105	1	
-0.164453	1	0.960556	1	
-0.163672	1	0.961008	1	
-0.162891	1	0.961461	1	
-0.162109	1	0.961915	1	
-0.161328	1	0.962369	1	
-0.160547	1	0.962825	1	
-0.159766	1	0.963281	1	
-0.158984	1	0.963739	1	
-0.158203	1	0.964197	1	
-0.157422	1	0.964656	1	
-0.156641	1	0.965116	1	
-0.155859	1	0.965577	1	
-0.155078	1	0.966038	1	
-0.154297	1	0.966501	1	
-0.153516	1	0.966964	1	
-0.152734	1	0.967428	1	
-0.151953	1	0.967893	1	
-0.151172	1	0.968358	1	
-0.150391	1	0.968825	1	
-0.149609	1	0.969292	1	
-0.148828	1	0.96976	1	
-0.148047	1	0.970228	1	
-0.147266	1	0.970698	1	
-0.146484	1	0.971168	1	
-0.145703	1	0.971638	1	
-0.144922	1	0.97211	1	
-0.144141	1	0.972582	1	
-0.143359	1	0.973054	1	
-0.142578	1	0.973528	1	
-0.141797	1	0.974002	1	
-0.141016	1	0.974476	1	
-0.140234	1	0.974952	1	
-0.139453	1	0.975427	1	
-0.138672	1	0.975904	1	
-0.137891	1	0.976381	1	
-0.137109	1	0.976858	1	
-0.136328	1	0.977337	1	
-0.135547	1	0.977815	1	
-0.134766	1	0.978295	1	
-0.133984	1	0.978774	1	
-0.133203	1	0.979255	1	
-0.132422	1	0.979735	1	
-0.131641	1	0.980217	1	
-0.130859	1	0.980698	1	
-0.130078	1	0.98118	1	
-0.129297	1	0.981663	1	
-0.128516	1	0.982146	1	
-0.127734	1	0.98263	1	
-0.126953	1	0.983114	1	
-0.126172	1	0.983598	1	
-0.125391	1	0.984083	1	
-0.124609	1	0.984568	1	
-0.123828	1	0.985053	1	
-0.123047	1	0.985539	1	
-0.122266	1	0.986025	1	
-0.121484	1	0.986512	1	
-0.120703	1	0.986999	1	
-0.119922	1	0.987486	1	
-0.119141	1	0.987973	1	
-0.118359	1	0.988461	1	
-0.117578	1	0.988949	1	
-0.116797	1	0.989438	1	
-0.116016	1	0.989926	1	
-0.115234	1	0.990415	1	
-0.114453	1	0.990904	1	
-0.113672	1	0.991393	1	
-0.112891	1	0.991883	1	
-0.112109	1	0.992373	1	
-0.111328	1	0.992863	1	
-0.110547	1	0.993353	1	
-0.109766	1	0.993843	1	
-0.108984	1	0.994334	1	
-0.108203	1	0.994824	1	
-0.107422	1	0.995315	1	
-0.106641	1	0.995806	1	
-0.105859	1	0.996297	1	
-0.105078	1	0.996789	1	
-0.104297	1	0.99728	1	
-0.103516	1	0.997772	1	
-0.102734	1	0.998264	1	
-0.101953	1	0.998756	1	
-0.101172	1	0.999248	1	
-0.100391	1	0.99974	1	
-0.0996094	1	1.00023	1	
-0.0988281	1	1.00072	1	
-0.0980469	1	1.00122	1	
-0.0972656	1	1.00171	1	
-0.0964844	1	1.0022	1	
-0.0957031	1	1.00269	1	
-0.0949219	1	1.00318	1	
-0.0941406	1	1.00367	1	
-0.0933594	1	1.00416	1	
-0.0925781	1	1.00466	1	
-0.0917969	1	1.00515	1	
-0.0910156	1	1.00564	1	
-0.0902344	1	1.00613	1	
-0.0894531	1	1.00662	1	
-0.0886719	1	1.00711	1	
-0.0878906	1	1.0076	1	
-0.0871094	1	1.00809	1	
-0.0863281	1	1.00858	1	
-0.0855469	1	1.00907	1	
-0.0847656	1	1.00956	1	
-0.0839844	1	1.01004	1	
-0.0832031	1	1.01053	1	
-0.0824219	1	1.01102	1	
-0.0816406	1	1.01151	1	
-0.0808594	1	1.012	1	
-0.0800781	1	1.01249	1	
-0.0792969	1	1.01297	1	
-0.0785156	1	1.01346	1	
-0.0777344	1	1.01395	1	
-0.0769531	1	1.01443	1	
-0.0761719	1	1.01492	1	
-0.0753906	1	1.0154	1	
-0.0746094	1	1.01589	1	
-0.0738281	1	1.01637	1	
-0.0730469	1	1.01686	1	
-0.0722656	1	1.01734	1	
-0.0714844	1	1.01783	1	
-0.0707031	1	1.01831	1	
-0.0699219	1	1.01879	1	
-0.0691406	1	1.01927	1	
-0.0683594	1	1.01976	1	
-0.0675781	1	1.02024	1	
-0.0667969	1	1.02072	1	
-0.0660156	1	1.0212	1	
-0.0652344	1	1.02168	1	
-0.0644531	1	1.02216	1	
-0.0636719	1	1.02263	1	
-0.0628906	1	1.02311	1	
-0.0621094	1	1.02359	1	
-0.0613281	1	1.02407	1	
-0.0605469	1	1.02454	1	
-0.0597656	1	1.02502	1	
-0.0589844	1	1.0255	1	
-0.0582031	1	1.02597	1	
-0.0574219	1	1.02644	1	
-0.0566406	1	1.02692	1	
-0.0558594	1	1.02739	1	
-0.0550781	1	1.02786	1	
-0.0542969	1	1.02833	1	
-0.0535156	1	1.0288	1	
-0.0527344	1	1.02927	1	
-0.0519531	1	1.02974	1	
-0.0511719	1	1.03021	1	
-0.0503906	1	1.03068	1	
-0.0496094	1	1.03115	1	
-0.0488281	1	1.03161	1	
-0.0480469	1	1.03208	1	
-0.0472656	1	1.03254	1	
-0.0464844	1	1.03301	1	
-0.0457031	1	1.03347	1	
-0.0449219	1	1.03393	1	
-0.0441406	1	1.0344	1	
-0.0433594	1	1.03486	1	
-0.0425781	1	1.03532	1	
-0.0417969	1	1.03578	1	
-0.0410156	1	1.03623	1	
-0.0402344	1	1.03669	1	
-0.0394531	1	1.03715	1	
-0.0386719	1	1.0376	1	
-0.0378906	1	1.03806	1	
-0.0371094	1	1.03851	1	
-0.0363281	1	1.03896	1	
-0.0355469	1	1.03942	1	
-0.0347656	1	1.03987	1	
-0.0339844	1	1.04032	1	
-0.0332031	1	1.04077	1	
-0.0324219	1	1.04121	1	
-0.0316406	1	1.04166	1	
-0.0308594	1	1.04211	1	
-0.0300781	1	1.04255	1	
-0.0292969	1	1.043	1	
-0.0285156	1	1.04344	1	
-0.0277344	1	1.04388	1	
-0.0269531	1	1.04432	1	
-0.0261719	1	1.04476	1	
-0.0253906	1	1.0452	1	
-0.0246094	1	1.04564	1	
-0.0238281	1	1.04608	1	
-0.0230469	1	1.04651	1	
-0.0222656	1	1.04695	1	
-0.0214844	1	1.04738	1	
-0.0207031	1	1.04781	1	
-0.0199219	1	1.04824	1	
-0.0191406	1	1.04867	1	
-0.0183594	1	1.0491	1	
-0.0175781	1	1.04953	1	
-0.0167969	1	1.04995	1	
-0.0160156	1	1.05038	1	
-0.0152344	1	1.0508	1	
-0.0144531	1	1.05122	1	
-0.0136719	1	1.05165	1	
-0.0128906	1	1.05207	1	
-0.0121094	1	1.05249	1	
-0.0113281	1	1.0529	1	
-0.0105469	1	1.05332	1	
-0.00976562	1	1.05374	1	
-0.00898437	1	1.05415	1	
-0.00820312	1	1.05456	1	
-0.00742187	1	1.05497	1	
-0.00664062	1	1.05538	1	
-0.00585938	1	1.05579	1	
-0.00507812	1	1.0562	1	
-0.00429687	1	1.0566	1	
-0.00351562	1	1.05701	1	
-0.00273437	1	1.05741	1	
-0.00195312	1	1.05781	1	
-0.00117187	1	1.05821	1	
-0.000390625	1	1.05861	1	
0.000390625	1	1.05901	1	
0.00117188	1	1.0594	1	
0.00195312	1	1.0598	1	
0.00273438	1	1.06019	1	
0.00351563	1	1.06058	1	
0.00429687	1	1.06097	1	
0.00507813	1	1.06136	1	
0.00585938	1	1.06175	1	
0.00664063	1	1.06214	1	
0.00742188	1	1.06252	1	
0.00820312	1	1.0629	1	
0.00898438	1	1.06329	1	
0.00976562	1	1.06367	1	
0.0105469	1	1.06404	1	
0.0113281	1	1.06442	1	
0.0121094	1	1.06479	1	
0.0128906	1	1.06517	1	
0.0136719	1	1.06554	1	
0.0144531	1	1.06591	1	
0.0152344	1	1.06627	1	
0.0160156	1	1.06664	1	
0.0167969	1	1.06701	1	
0.0175781	1	1.06737	1	
0.0183594	1	1.06773	1	
0.0191406	1	1.06809	1	
0.0199219	1	1.06845	1	
0.0207031	1	1.06881	1	
0.0214844	1	1.06917	1	
0.0222656	1	1.06952	1	
0.0230469	1	1.06988	1	
0.0238281	1	1.07023	1	
0.0246094	1	1.07058	1	
0.0253906	1	1.07093	1	
0.0261719	1	1.07127	1	
0.0269531	1	1.07162	1	
0.0277344	1	1.07196	1	
0.0285156	1	1.0723	1	
0.0292969	1	1.07264	1	
0.0300781	1	1.07297	1	
0.0308594	1	1.07331	1	
0.0316406	1	1.07364	1	
0.0324219	1	1.07397	1	
0.0332031	1	1.0743	1	
0.0339844	1	1.07462	1	
0.0347656	1	1.07495	1	
0.0355469	1	1.07527	1	
0.0363281	1	1.0756	1	
0.0371094	1	1.07592	1	
0.0378906	1	1.07624	1	
0.0386719	1	1.07655	1	
0.0394531	1	1.07687	1	
0.0402344	1	1.07719	1	
0.0410156	1	1.0775	1	
0.0417969	1	1.07781	1	
0.0425781	1	1.07812	1	
0.0433594	1	1.07843	1	
0.0441406	1	1.07873	1	
0.0449219	1	1.07904	1	
0.0457031	1	1.07934	1	
0.0464844	1	1.07964	1	
0.0472656	1	1.07993	1	
0.0480469	1	1.08023	1	
0.0488281	1	1.08052	1	
0.0496094	1	1.08081	1	
0.0503906	1	1.08109	1	
0.0511719	1	1.08138	1	
0.0519531	1	1.08166	1	
0.0527344	1	1.08194	1	
0.0535156	1	1.08222	1	
0.0542969	1	1.0825	1	
0.0550781	1	1.08277	1	
0.0558594	1	1.08305	1	
0.0566406	1	1.08332	1	
0.0574219	1	1.08359	1	
0.0582031	1	1.08386	1	
0.0589844	1	1.08413	1	
0.0597656	1	1.08439	1	
0.0605469	1	1.08466	1	
0.0613281	1	1.08492	1	
0.0621094	1	1.08518	1	
0.0628906	1	1.08544	1	
0.0636719	1	1.0857	1	
0.0644531	1	1.08596	1	
0.0652344	1	1.08621	1	
0.0660156	1	1.08646	1	
0.0667969	1	1.08671	1	
0.0675781	1	1.08695	1	
0.0683594	1	1.08719	1	
0.0691406	1	1.08743	1	
0.0699219	1	1.08767	1	
0.0707031	1	1.0879	1	
0.0714844	1	1.08814	1	
0.0722656	1	1.08837	1	
0.0730469	1	1.08859	1	
0.0738281	1	1.08882	1	
0.0746094	1	1.08904	1	
0.0753906	1	1.08926	1	
0.0761719	1	1.08948	1	
0.0769531	1	1.08969	1	
0.0777344	1	1.08991	1	
0.0785156	1	1.09012	1	
0.0792969	1	1.09033	1	
0.0800781	1	1.09054	1	
0.0808594	1	1.09075	1	
0.0816406	1	1.09095	1	
0.0824219	1	1.09116	1	
0.0832031	1	1.09136	1	
0.0839844	1	1.09156	1	
0.0847656	1	1.09176	1	
0.0855469	1	1.09196	1	
0.0863281	1	1.09216	1	
0.0871094	1	1.09235	1	
0.0878906	1	1.09254	1	
0.0886719	1	1.09273	1	
0.0894531	1	1.09292	1	
0.0902344	1	1.0931	1	
0.0910156	1	1.09329	1	
0.0917969	1	1.09347	1	
0.0925781	1	1.09364	1	
0.0933594	1	1.09382	1	
0.0941406	1	1.09399	1	
0.0949219	1	1.09415	1	
0.0957031	1	1.09432	1	
0.0964844	1	1.09448	1	
0.0972656	1	1.09463	1	
0.0980469	1	1.09479	1	
0.0988281	1	1.09494	1	
0.0996094	1	1.09509	1	
0.100391	1	1.09524	1	
0.101172	1	1.09538	1	
0.101953	1	1.09552	1	
0.102734	1	1.09566	1	
0.103516	1	1.0958	1	
0.104297	1	1.09594	1	
0.105078	1	1.09607	1	
0.105859	1	1.0962	1	
0.106641	1	1.09633	1	
0.107422	1	1.09646	1	
0.108203	1	1.09659	1	
0.108984	1	1.09672	1	
0.109766	1	1.09684	1	
0.110547	1	1.09697	1	
0.111328	1	1.09709	1	
0.112109	1	1.09721	1	
0.112891	1	1.09733	1	
0.113672	1	1.09745	1	
0.114453	1	1.09756	1	
0.115234	1	1.09768	1	
0.116016	1	1.09779	1	
0.116797	1	1.0979	1	
0.117578	1	1.09801	1	
0.118359	1	1.09811	1	
0.119141	1	1.09822	1	
0.119922	1	1.09832	1	
0.120703	1	1.09841	1	
0.121484	1	1.09851	1	
0.122266	1	1.0986	1	
0.123047	1	1.09869	1	
0.123828	1	1.09878	1	
0.124609	1	1.09886	1	
0.125391	1	1.09894	1	
0.126172	1	1.09901	1	
0.126953	1	1.09908	1	
0.127734	1	1.09915	1	
0.128516	1	1.09922	1	
0.129297	1	1.09928	1	
0.130078	1	1.09933	1	
0.130859	1	1.09939	1	
0.131641	1	1.09944	1	
0.132422	1	1.09948	1	
0.133203	1	1.09953	1	
0.133984	1	1.09956	1	
0.134766	1	1.0996	1	
0.135547	1	1.09963	1	
0.136328	1	1.09966	1	
0.137109	1	1.09969	1	
0.137891	1	1.09972	1	
0.138672	1	1.09974	1	
0.139453	1	1.09976	1	
0.140234	1	1.09978	1	
0.141016	1	1.09979	1	
0.141797	1	1.0998	1	
0.142578	1	1.09982	1	
0.143359	1	1.09982	1	
0.144141	1	1.09983	1	
0.144922	1	1.09984	1	
0.145703	1	1.09985	1	
0.146484	1	1.09985	1	
0.147266	1	1.09985	1	
0.148047	1	1.09986	1	
0.148828	1	1.09986	1	
0.149609	1	1.09986	1	
0.150391	1	1.09986	1	
0.151172	1	1.09986	1	
0.151953	1	1.09986	1	
0.152734	1	1.09986	1	
0.153516	1	1.09986	1	
0.154297	1	1.09986	1	
0.155078	1	1.09986	1	
0.155859	1	1.09985	1	
0.156641	1	1.09985	1	
0.157422	1	1.09985	1	
0.158203	1	1.09984	1	
0.158984	1	1.09983	1	
0.159766	1	1.09982	1	
0.160547	1	1.09981	1	
0.161328	1	1.09979	1	
0.162109	1	1.09977	1	
0.162891	1	1.09975	1	
0.163672	1	1.09972	1	
0.164453	1	1.09969	1	
0.165234	1	1.09965	1	
0.166016	1	1.09962	1	
0.166797	1	1.09957	1	
0.167578	1	1.09952	1	
0.168359	1	1.09947	1	
0.169141	1	1.09942	1	
0.169922	1	1.09936	1	
0.170703	1	1.09929	1	
0.171484	1	1.09922	1	
0.172266	1	1.09915	1	
0.173047	1	1.09907	1	
0.173828	1	1.09899	1	
0.174609	1	1.09891	1	
0.175391	1	1.09882	1	
0.176172	1	1.09873	1	
0.176953	1	1.09864	1	
0.177734	1	1.09855	1	
0.178516	1	1.09845	1	
0.179297	1	1.09835	1	
0.180078	1	1.09826	1	
0.180859	1	1.09816	1	
0.181641	1	1.09806	1	
0.182422	1	1.09796	1	
0.183203	1	1.09785	1	
0.183984	1	1.09775	1	
0.184766	1	1.09765	1	
0.185547	1	1.09754	1	
0.186328	1	1.09744	1	
0.187109	1	1.09733	1	
0.187891	1	1.09722	1	
0.188672	1	1.09711	1	
0.189453	1	1.097	1	
0.190234	1	1.09689	1	
0.191016	1	1.09677	1	
0.191797	1	1.09665	1	
0.192578	1	1.09653	1	
0.193359	1	1.0964	1	
0.194141	1	1.09627	1	
0.194922	1	1.09614	1	
0.195703	1	1.096	1	
0.196484	1	1.09586	1	
0.197266	1	1.09571	1	
0.198047	1	1.09556	1	
0.198828	1	1.09541	1	
0.199609	1	1.09526	1	
0.200391	1	1.0951	1	
0.201172	1	1.09494	1	
0.201953	1	1.09478	1	
0.202734	1	1.09462	1	
0.203516	1	1.09445	1	
0.204297	1	1.09429	1	
0.205078	1	1.09412	1	
0.205859	1	1.09395	1	
0.206641	1	1.09378	1	
0.207422	1	1.09361	1	
0.208203	1	1.09344	1	
0.208984	1	1.09326	1	
0.209766	1	1.09309	1	
0.210547	1	1.09291	1	
0.211328	1	1.09273	1	
0.212109	1	1.09255	1	
0.212891	1	1.09237	1	
0.213672	1	1.09218	1	
0.214453	1	1.09199	1	
0.215234	1	1.09179	1	
0.216016	1	1.0916	1	
0.216797	1	1.0914	1	
0.217578	1	1.0912	1	
0.218359	1	1.09099	1	
0.219141	1	1.09078	1	
0.219922	1	1.09057	1	
0.220703	1	1.09036	1	
0.221484	1	1.09014	1	
0.222266	1	1.08993	1	
0.223047	1	1.08971	1	
0.223828	1	1.08949	1	
0.224609	1	1.08927	1	
0.225391	1	1.08904	1	
0.226172	1	1.08882	1	
0.226953	1	1.08859	1	
0.227734	1	1.08837	1	
0.228516	1	1.08814	1	
0.229297	1	1.08791	1	
0.230078	1	1.08767	1	
0.230859	1	1.08744	1	
0.231641	1	1.0872	1	
0.232422	1	1.08696	1	
0.233203	1	1.08671	1	
0.233984	1	1.08647	1	
0.234766	1	1.08622	1	
0.235547	1	1.08597	1	
0.236328	1	1.08571	1	
0.237109	1	1.08546	1	
0.237891	1	1.0852	1	
0.238672	1	1.08494	1	
0.239453	1	1.08468	1	
0.240234	1	1.08441	1	
0.241016	1	1.08415	1	
0.241797	1	1.08388	1	
0.242578	1	1.08361	1	
0.243359	1	1.08334	1	
0.244141	1	1.08307	1	
0.244922	1	1.0828	1	
0.245703	1	1.08252	1	
0.246484	1	1.08224	1	
0.247266	1	1.08196	1	
0.248047	1	1.08168	1	
0.248828	1	1.0814	1	
0.249609	1	1.08111	1	
0.250391	1	1.08082	1	
0.251172	1	1.08053	1	
0.251953	1	1.08024	1	
0.252734	1	1.07994	1	
0.253516	1	1.07965	1	
0.254297	1	1.07935	1	
0.255078	1	1.07905	1	
0.255859	1	1.07874	1	
0.256641	1	1.07844	1	
0.257422	1	1.07813	1	
0.258203	1	1.07783	1	
0.258984	1	1.07752	1	
0.259766	1	1.07721	1	
0.260547	1	1.07689	1	
0.261328	1	1.07658	1	
0.262109	1	1.07626	1	
0.262891	1	1.07594	1	
0.263672	1	1.07562	1	
0.264453	1	1.0753	1	
0.265234	1	1.07498	1	
0.266016	1	1.07465	1	
0.266797	1	1.07432	1	
0.267578	1	1.07399	1	
0.268359	1	1.07366	1	
0.269141	1	1.07332	1	
0.269922	1	1.07299	1	
0.270703	1	1.07265	1	
0.271484	1	1.07231	1	
0.272266	1	1.07197	1	
0.273047	1	1.07163	1	
0.273828	1	1.07129	1	
0.274609	1	1.07094	1	
0.275391	1	1.0706	1	
0.276172	1	1.07025	1	
0.276953	1	1.0699	1	
0.277734	1	1.06954	1	
0.278516	1	1.06919	1	
0.279297	1	1.06883	1	
0.280078	1	1.06848	1	
0.280859	1	1.06812	1	
0.281641	1	1.06776	1	
0.282422	1	1.06739	1	
0.283203	1	1.06703	1	
0.283984	1	1.06667	1	
0.284766	1	1.0663	1	
0.285547	1	1.06593	1	
0.286328	1	1.06556	1	
0.287109	1	1.06519	1	
0.287891	1	1.06481	1	
0.288672	1	1.06444	1	
0.289453	1	1.06406	1	
0.290234	1	1.06368	1	
0.291016	1	1.06331	1	
0.291797	1	1.06292	1	
0.292578	1	1.06254	1	
0.293359	1	1.06216	1	
0.294141	1	1.06177	1	
0.294922	1	1.06138	1	
0.295703	1	1.061	1	
0.296484	1	1.06061	1	
0.297266	1	1.06021	1	
0.298047	1	1.05982	1	
0.298828	1	1.05943	1	
0.299609	1	1.05903	1	
0.300391	1	1.05863	1	
0.301172	1	1.05823	1	
0.301953	1	1.05783	1	
0.302734	1	1.05743	1	
0.303516	1	1.05703	1	
0.304297	1	1.05663	1	
0.305078	1	1.05622	1	
0.305859	1	1.05581	1	
0.306641	1	1.0554	1	
0.307422	1	1.05499	1	
0.308203	1	1.05458	1	
0.308984	1	1.05417	1	
0.309766	1	1.05376	1	
0.310547	1	1.05334	1	
0.311328	1	1.05293	1	
0.312109	1	1.05251	1	
0.312891	1	1.05209	1	
0.313672	1	1.05167	1	
0.314453	1	1.05125	1	
0.315234	1	1.05083	1	
0.316016	1	1.0504	1	
0.316797	1	1.04998	1	
0.317578	1	1.04955	1	
0.318359	1	1.04912	1	
0.319141	1	1.0487	1	
0.319922	1	1.04827	1	
0.320703	1	1.04784	1	
0.321484	1	1.0474	1	
0.322266	1	1.04697	1	
0.323047	1	1.04654	1	
0.323828	1	1.0461	1	
0.324609	1	1.04566	1	
0.325391	1	1.04523	1	
0.326172	1	1.04479	1	
0.326953	1	1.04435	1	
0.327734	1	1.04391	1	
0.328516	1	1.04347	1	
0.329297	1	1.04302	1	
0.330078	1	1.04258	1	
0.330859	1	1.04213	1	
0.331641	1	1.04169	1	
0.332422	1	1.04124	1	
0.333203	1	1.04079	1	
0.333984	1	1.04034	1	
0.334766	1	1.03989	1	
0.335547	1	1.03944	1	
0.336328	1	1.03899	1	
0.337109	1	1.03854	1	
0.337891	1	1.03808	1	
0.338672	1	1.03763	1	
0.339453	1	1.03717	1	
0.340234	1	1.03672	1	
0.341016	1	1.03626	1	
0.341797	1	1.0358	1	
0.342578	1	1.03534	1	
0.343359	1	1.03488	1	
0.344141	1	1.03442	1	
0.344922	1	1.03396	1	
0.345703	1	1.0335	1	
0.346484	1	1.03304	1	
0.347266	1	1.03257	1	
0.348047	1	1.03211	1	
0.348828	1	1.03164	1	
0.349609	1	1.03117	1	
0.350391	1	1.03071	1	
0.351172	1	1.03024	1	
0.351953	1	1.02977	1	
0.352734	1	1.0293	1	
0.353516	1	1.02883	1	
0.354297	1	1.02836	1	
0.355078	1	1.02789	1	
0.355859	1	1.02742	1	
0.356641	1	1.02694	1	
0.357422	1	1.02647	1	
0.358203	1	1.026	1	
0.358984	1	1.02552	1	
0.359766	1	1.02505	1	
0.360547	1	1.02457	1	
0.361328	1	1.0241	1	
0.362109	1	1.02362	1	
0.362891	1	1.02314	1	
0.363672	1	1.02266	1	
0.364453	1	1.02218	1	
0.365234	1	1.0217	1	
0.366016	1	1.02122	1	
0.366797	1	1.02074	1	
0.367578	1	1.02026	1	
0.368359	1	1.01978	1	
0.369141	1	1.0193	1	
0.369922	1	1.01882	1	
0.370703	1	1.01834	1	
0.371484	1	1.01785	1	
0.372266	1	1.01737	1	
0.373047	1	1.01689	1	
0.373828	1	1.0164	1	
0.374609	1	1.01592	1	
0.375391	1	1.01543	1	
0.376172	1	1.01495	1	
0.376953	1	1.01446	1	
0.377734	1	1.01397	1	
0.378516	1	1.01349	1	
0.379297	1	1.013	1	
0.380078	1	1.01251	1	
0.380859	1	1.01203	1	
0.381641	1	1.01154	1	
0.382422	1	1.01105	1	
0.383203	1	1.01056	1	
0.383984	1	1.01007	1	
0.384766	1	1.00958	1	
0.385547	1	1.0091	1	
0.386328	1	1.00861	1	
0.387109	1	1.00812	1	
0.387891	1	1.00763	1	
0.388672	1	1.00714	1	
0.389453	1	1.00665	1	
0.390234	1	1.00616	1	
0.391016	1	1.00567	1	
0.391797	1	1.00518	1	
0.392578	1	1.00468	1	
0.393359	1	1.00419	1	
0.394141	1	1.0037	1	
0.394922	1	1.00321	1	
0.395703	1	1.00272	1	
0.396484	1	1.00223	1	
0.397266	1	1.00174	1	
0.398047	1	1.00124	1	
0.398828	1	1.00075	1	
0.399609	1	1.00026	1	
0.400391	1	0.999768	1	
0.401172	1	0.999276	1	
0.401953	1	0.998784	1	
0.402734	1	0.998292	1	
0.403516	1	0.997801	1	
0.404297	1	0.997309	1	
0.405078	1	0.996818	1	
0.405859	1	0.996327	1	
0.406641	1	0.995836	1	
0.407422	1	0.995345	1	
0.408203	1	0.994854	1	
0.408984	1	0.994363	1	
0.409766	1	0.993873	1	
0.410547	1	0.993382	1	
0.411328	1	0.992892	1	
0.412109	1	0.992402	1	
0.412891	1	0.991912	1	
0.413672	1	0.991423	1	
0.414453	1	0.990934	1	
0.415234	1	0.990445	1	
0.416016	1	0.989956	1	
0.416797	1	0.989467	1	
0.417578	1	0.988979	1	
0.418359	1	0.988491	1	
0.419141	1	0.988003	1	
0.419922	1	0.987516	1	
0.420703	1	0.987028	1	
0.421484	1	0.986541	1	
0.422266	1	0.986055	1	
0.423047	1	0.985568	1	
0.423828	1	0.985083	1	
0.424609	1	0.984597	1	
0.425391	1	0.984112	1	
0.426172	1	0.983627	1	
0.426953	1	0.983143	1	
0.427734	1	0.982659	1	
0.428516	1	0.982175	1	
0.429297	1	0.981692	1	
0.430078	1	0.98121	1	
0.430859	1	0.980727	1	
0.431641	1	0.980246	1	
0.432422	1	0.979765	1	
0.433203	1	0.979284	1	
0.433984	1	0.978804	1	
0.434766	1	0.978324	1	
0.435547	1	0.977844	1	
0.436328	1	0.977366	1	
0.437109	1	0.976887	1	
0.437891	1	0.97641	1	
0.438672	1	0.975932	1	
0.439453	1	0.975456	1	
0.440234	1	0.97498	1	
0.441016	1	0.974505	1	
0.441797	1	0.97403	1	
0.442578	1	0.973556	1	
0.443359	1	0.973083	1	
0.444141	1	0.97261	1	
0.444922	1	0.972138	1	
0.445703	1	0.971667	1	
0.446484	1	0.971196	1	
0.447266	1	0.970726	1	
0.448047	1	0.970257	1	
0.448828	1	0.969789	1	
0.449609	1	0.969321	1	
0.450391	1	0.968853	1	
0.451172	1	0.968387	1	
0.451953	1	0.967921	1	
0.452734	1	0.967456	1	
0.453516	1	0.966992	1	
0.454297	1	0.966528	1	
0.455078	1	0.966066	1	
0.455859	1	0.965604	1	
0.456641	1	0.965143	1	
0.457422	1	0.964683	1	
0.458203	1	0.964224	1	
0.458984	1	0.963766	1	
0.459766	1	0.963309	1	
0.460547	1	0.962852	1	
0.461328	1	0.962397	1	
0.462109	1	0.961943	1	
0.462891	1	0.961489	1	
0.463672	1	0.961036	1	
0.464453	1	0.960584	1	
0.465234	1	0.960133	1	
0.466016	1	0.959683	1	
0.466797	1	0.959234	1	
0.467578	1	0.958785	1	
0.468359	1	0.958338	1	
0.469141	1	0.957892	1	
0.469922	1	0.957446	1	
0.470703	1	0.957002	1	
0.471484	1	0.956559	1	
0.472266	1	0.956117	1	
0.473047	1	0.955676	1	
0.473828	1	0.955236	1	
0.474609	1	0.954798	1	
0.475391	1	0.95436	1	
0.476172	1	0.953924	1	
0.476953	1	0.953489	1	
0.477734	1	0.953055	1	
0.478516	1	0.952622	1	
0.479297	1	0.952191	1	
0.480078	1	0.95176	1	
0.480859	1	0.95133	1	
0.481641	1	0.950901	1	
0.482422	1	0.950474	1	
0.483203	1	0.950047	1	
0.483984	1	0.949622	1	
0.484766	1	0.949198	1	
0.485547	1	0.948774	1	
0.486328	1	0.948353	1	
0.487109	1	0.947932	1	
0.487891	1	0.947513	1	
0.488672	1	0.947095	1	
0.489453	1	0.946679	1	
0.490234	1	0.946264	1	
0.491016	1	0.945851	1	
0.491797	1	0.945439	1	
0.492578	1	0.945029	1	
0.493359	1	0.94462	1	
0.494141	1	0.944212	1	
0.494922	1	0.943805	1	
0.495703	1	0.9434	1	
0.496484	1	0.942996	1	
0.497266	1	0.942593	1	
0.498047	1	0.942192	1	
0.498828	1	0.941791	1	
0.499609	1	0.941392	1	
