1.30006
640
-0.499219	1	1.09561	1	
-0.497656	1	1.09592	1	
-0.496094	1	1.09622	1	
-0.494531	1	1.0965	1	
-0.492969	1	1.09677	1	
-0.491406	1	1.09702	1	
-0.489844	1	1.09727	1	
-0.488281	1	1.09749	1	
-0.486719	1	1.09771	1	
-0.485156	1	1.09791	1	
-0.483594	1	1.09809	1	
-0.482031	1	1.09826	1	
-0.480469	1	1.09842	1	
-0.478906	1	1.09856	1	
-0.477344	1	1.0987	1	
-0.475781	1	1.09882	1	
-0.474219	1	1.09892	1	
-0.472656	1	1.09902	1	
-0.471094	1	1.09911	1	
-0.469531	1	1.09918	1	
-0.467969	1	1.09925	1	
-0.466406	1	1.0993	1	
-0.464844	1	1.09935	1	
-0.463281	1	1.09939	1	
-0.461719	1	1.09943	1	
-0.460156	1	1.09946	1	
-0.458594	1	1.09948	1	
-0.457031	1	1.0995	1	
-0.455469	1	1.09951	1	
-0.453906	1	1.09952	1	
-0.452344	1	1.09953	1	
-0.450781	1	1.09953	1	
-0.449219	1	1.09954	1	
-0.447656	1	1.09954	1	
-0.446094	1	1.09954	1	
-0.444531	1	1.09954	1	
-0.442969	1	1.09954	1	
-0.441406	1	1.09953	1	
-0.439844	1	1.09952	1	
-0.438281	1	1.09951	1	
-0.436719	1	1.09949	1	
-0.435156	1	1.09947	1	
-0.433594	1	1.09943	1	
-0.432031	1	1.09939	1	
-0.430469	1	1.09933	1	
-0.428906	1	1.09927	1	
-0.427344	1	1.09919	1	
-0.425781	1	1.09909	1	
-0.424219	1	1.09898	1	
-0.422656	1	1.09886	1	
-0.421094	1	1.09872	1	
-0.419531	1	1.09856	1	
-0.417969	1	1.09838	1	
-0.416406	1	1.09819	1	
-0.414844	1	1.09798	1	
-0.413281	1	1.09776	1	
-0.411719	1	1.09752	1	
-0.410156	1	1.09726	1	
-0.408594	1	1.09699	1	
-0.407031	1	1.0967	1	
-0.405469	1	1.0964	1	
-0.403906	1	1.0961	1	
-0.402344	1	1.09578	1	
-0.400781	1	1.09545	1	
-0.399219	1	1.09512	1	
-0.397656	1	1.09478	1	
-0.396094	1	1.09443	1	
-0.394531	1	1.09408	1	
-0.392969	1	1.09373	1	
-0.391406	1	1.09337	1	
-0.389844	1	1.09301	1	
-0.388281	1	1.09265	1	
-0.386719	1	1.09228	1	
-0.385156	1	1.09191	1	
-0.383594	1	1.09153	1	
-0.382031	1	1.09115	1	
-0.380469	1	1.09076	1	
-0.378906	1	1.09036	1	
-0.377344	1	1.08996	1	
-0.375781	1	1.08954	1	
-0.374219	1	1.08911	1	
-0.372656	1	1.08867	1	
-0.371094	1	1.08821	1	
-0.369531	1	1.08775	1	
-0.367969	1	1.08727	1	
-0.366406	1	1.08678	1	
-0.364844	1	1.08627	1	
-0.363281	1	1.08575	1	
-0.361719	1	1.08523	1	
-0.360156	1	1.08469	1	
-0.358594	1	1.08415	1	
-0.357031	1	1.08359	1	
-0.355469	1	1.08304	1	
-0.353906	1	1.08247	1	
-0.352344	1	1.0819	1	
-0.350781	1	1.08133	1	
-0.349219	1	1.08075	1	
-0.347656	1	1.08017	1	
-0.346094	1	1.07958	1	
-0.344531	1	1.07898	1	
-0.342969	1	1.07839	1	
-0.341406	1	1.07778	1	
-0.339844	1	1.07717	1	
-0.338281	1	1.07655	1	
-0.336719	1	1.07592	1	
-0.335156	1	1.07528	1	
-0.333594	1	1.07463	1	
-0.332031	1	1.07397	1	
-0.330469	1	1.0733	1	
-0.328906	1	1.07262	1	
-0.327344	1	1.07194	1	
-0.325781	1	1.07124	1	
-0.324219	1	1.07054	1	
-0.322656	1	1.06983	1	
-0.321094	1	1.06912	1	
-0.319531	1	1.0684	1	
-0.317969	1	1.06767	1	
-0.316406	1	1.06694	1	
-0.314844	1	1.06621	1	
-0.313281	1	1.06547	1	
-0.311719	1	1.06472	1	
-0.310156	1	1.06397	1	
-0.308594	1	1.06322	1	
-0.307031	1	1.06246	1	
-0.305469	1	1.06169	1	
-0.303906	1	1.06091	1	
-0.302344	1	1.06013	1	
-0.300781	1	1.05935	1	
-0.299219	1	1.05855	1	
-0.297656	1	1.05775	1	
-0.296094	1	1.05694	1	
-0.294531	1	1.05612	1	
-0.292969	1	1.0553	1	
-0.291406	1	1.05448	1	
-0.289844	1	1.05365	1	
-0.288281	1	1.05281	1	
-0.286719	1	1.05197	1	
-0.285156	1	1.05113	1	
-0.283594	1	1.05028	1	
-0.282031	1	1.04943	1	
-0.280469	1	1.04857	1	
-0.278906	1	1.04771	1	
-0.277344	1	1.04685	1	
-0.275781	1	1.04598	1	
-0.274219	1	1.0451	1	
-0.272656	1	1.04422	1	
-0.271094	1	1.04334	1	
-0.269531	1	1.04245	1	
-0.267969	1	1.04156	1	
-0.266406	1	1.04066	1	
-0.264844	1	1.03976	1	
-0.263281	1	1.03885	1	
-0.261719	1	1.03794	1	
-0.260156	1	1.03703	1	
-0.258594	1	1.03611	1	
-0.257031	1	1.03519	1	
-0.255469	1	1.03427	1	
-0.253906	1	1.03335	1	
-0.252344	1	1.03242	1	
-0.250781	1	1.03149	1	
-0.249219	1	1.03055	1	
-0.247656	1	1.02961	1	
-0.246094	1	1.02867	1	
-0.244531	1	1.02773	1	
-0.242969	1	1.02678	1	
-0.241406	1	1.02584	1	
-0.239844	1	1.02488	1	
-0.238281	1	1.02393	1	
-0.236719	1	1.02297	1	
-0.235156	1	1.02201	1	
-0.233594	1	1.02105	1	
-0.232031	1	1.02009	1	
-0.230469	1	1.01912	1	
-0.228906	1	1.01816	1	
-0.227344	1	1.01719	1	
-0.225781	1	1.01622	1	
-0.224219	1	1.01525	1	
-0.222656	1	1.01428	1	
-0.221094	1	1.0133	1	
-0.219531	1	1.01233	1	
-0.217969	1	1.01135	1	
-0.216406	1	1.01037	1	
-0.214844	1	1.00939	1	
-0.213281	1	1.00841	1	
-0.211719	1	1.00742	1	
-0.210156	1	1.00644	1	
-0.208594	1	1.00545	1	
-0.207031	1	1.00447	1	
-0.205469	1	1.00348	1	
-0.203906	1	1.00249	1	
-0.202344	1	1.0015	1	
-0.200781	1	1.00051	1	
-0.199219	1	0.999526	1	
-0.197656	1	0.99854	1	
-0.196094	1	0.997555	1	
-0.194531	1	0.99657	1	
-0.192969	1	0.995585	1	
-0.191406	1	0.994601	1	
-0.189844	1	0.993616	1	
-0.188281	1	0.992632	1	
-0.186719	1	0.991648	1	
-0.185156	1	0.990665	1	
-0.183594	1	0.989682	1	
-0.182031	1	0.9887	1	
-0.180469	1	0.987719	1	
-0.178906	1	0.98674	1	
-0.177344	1	0.985763	1	
-0.175781	1	0.984788	1	
-0.174219	1	0.983816	1	
-0.172656	1	0.982846	1	
-0.171094	1	0.981879	1	
-0.169531	1	0.980914	1	
-0.167969	1	0.979952	1	
-0.166406	1	0.978993	1	
-0.164844	1	0.978036	1	
-0.163281	1	0.977081	1	
-0.161719	1	0.976128	1	
-0.160156	1	0.975177	1	
-0.158594	1	0.974227	1	
-0.157031	1	0.973279	1	
-0.155469	1	0.972332	1	
-0.153906	1	0.971387	1	
-0.152344	1	0.970443	1	
-0.150781	1	0.969502	1	
-0.149219	1	0.968562	1	
-0.147656	1	0.967625	1	
-0.146094	1	0.966691	1	
-0.144531	1	0.96576	1	
-0.142969	1	0.964833	1	
-0.141406	1	0.963911	1	
-0.139844	1	0.962993	1	
-0.138281	1	0.96208	1	
-0.136719	1	0.961172	1	
-0.135156	1	0.960269	1	
-0.133594	1	0.959371	1	
-0.132031	1	0.958479	1	
-0.130469	1	0.957591	1	
-0.128906	1	0.956708	1	
-0.127344	1	0.955829	1	
-0.125781	1	0.954954	1	
-0.124219	1	0.954084	1	
-0.122656	1	0.953216	1	
-0.121094	1	0.952352	1	
-0.119531	1	0.951491	1	
-0.117969	1	0.950633	1	
-0.116406	1	0.949778	1	
-0.114844	1	0.948926	1	
-0.113281	1	0.948078	1	
-0.111719	1	0.947233	1	
-0.110156	1	0.946392	1	
-0.108594	1	0.945556	1	
-0.107031	1	0.944726	1	
-0.105469	1	0.943901	1	
-0.103906	1	0.943082	1	
-0.102344	1	0.942269	1	
-0.100781	1	0.941464	1	
-0.0992187	1	0.940667	1	
-0.0976562	1	0.939877	1	
-0.0960937	1	0.939094	1	
-0.0945312	1	0.93832	1	
-0.0929687	1	0.937554	1	
-0.0914062	1	0.936795	1	
-0.0898438	1	0.936043	1	
-0.0882812	1	0.935299	1	
-0.0867187	1	0.934561	1	
-0.0851562	1	0.933829	1	
-0.0835937	1	0.933103	1	
-0.0820312	1	0.932383	1	
-0.0804687	1	0.931668	1	
-0.0789062	1	0.930957	1	
-0.0773437	1	0.930251	1	
-0.0757812	1	0.929549	1	
-0.0742188	1	0.928852	1	
-0.0726562	1	0.928159	1	
-0.0710937	1	0.927471	1	
-0.0695312	1	0.926787	1	
-0.0679687	1	0.926109	1	
-0.0664062	1	0.925437	1	
-0.0648437	1	0.924771	1	
-0.0632812	1	0.924113	1	
-0.0617187	1	0.923461	1	
-0.0601562	1	0.922818	1	
-0.0585938	1	0.922184	1	
-0.0570312	1	0.921558	1	
-0.0554687	1	0.920943	1	
-0.0539062	1	0.920338	1	
-0.0523437	1	0.919743	1	
-0.0507812	1	0.919158	1	
-0.0492187	1	0.918585	1	
-0.0476562	1	0.918022	1	
-0.0460937	1	0.91747	1	
-0.0445312	1	0.916927	1	
-0.0429688	1	0.916396	1	
-0.0414062	1	0.915873	1	
-0.0398437	1	0.91536	1	
-0.0382812	1	0.914856	1	
-0.0367187	1	0.914359	1	
-0.0351562	1	0.913871	1	
-0.0335937	1	0.913389	1	
-0.0320312	1	0.912914	1	
-0.0304687	1	0.912445	1	
-0.0289062	1	0.911983	1	
-0.0273438	1	0.911525	1	
-0.0257812	1	0.911073	1	
-0.0242187	1	0.910626	1	
-0.0226562	1	0.910184	1	
-0.0210937	1	0.909747	1	
-0.0195312	1	0.909315	1	
-0.0179687	1	0.908889	1	
-0.0164062	1	0.908468	1	
-0.0148437	1	0.908054	1	
-0.0132812	1	0.907647	1	
-0.0117188	1	0.907246	1	
-0.0101562	1	0.906854	1	
-0.00859375	1	0.90647	1	
-0.00703125	1	0.906094	1	
-0.00546875	1	0.905729	1	
-0.00390625	1	0.905374	1	
-0.00234375	1	0.90503	1	
-0.00078125	1	0.904697	1	
0.00078125	1	0.904376	1	
0.00234375	1	0.904068	1	
0.00390625	1	0.903773	1	
0.00546875	1	0.903492	1	
0.00703125	1	0.903224	1	
0.00859375	1	0.90297	1	
0.0101562	1	0.90273	1	
0.0117188	1	0.902505	1	
0.0132813	1	0.902293	1	
0.0148438	1	0.902096	1	
0.0164063	1	0.901913	1	
0.0179687	1	0.901743	1	
0.0195312	1	0.901587	1	
0.0210938	1	0.901444	1	
0.0226563	1	0.901314	1	
0.0242188	1	0.901196	1	
0.0257812	1	0.901089	1	
0.0273438	1	0.900994	1	
0.0289063	1	0.90091	1	
0.0304688	1	0.900835	1	
0.0320313	1	0.90077	1	
0.0335937	1	0.900714	1	
0.0351562	1	0.900665	1	
0.0367188	1	0.900624	1	
0.0382813	1	0.90059	1	
0.0398438	1	0.900563	1	
0.0414062	1	0.90054	1	
0.0429688	1	0.900523	1	
0.0445313	1	0.900509	1	
0.0460938	1	0.9005	1	
0.0476563	1	0.900493	1	
0.0492187	1	0.900489	1	
0.0507812	1	0.900486	1	
0.0523438	1	0.900485	1	
0.0539063	1	0.900485	1	
0.0554688	1	0.900486	1	
0.0570312	1	0.900487	1	
0.0585938	1	0.900492	1	
0.0601563	1	0.9005	1	
0.0617188	1	0.900513	1	
0.0632813	1	0.900531	1	
0.0648437	1	0.900557	1	
0.0664062	1	0.900591	1	
0.0679688	1	0.900635	1	
0.0695313	1	0.900688	1	
0.0710938	1	0.900754	1	
0.0726562	1	0.900832	1	
0.0742188	1	0.900924	1	
0.0757813	1	0.901031	1	
0.0773438	1	0.901153	1	
0.0789063	1	0.901291	1	
0.0804687	1	0.901445	1	
0.0820312	1	0.901617	1	
0.0835938	1	0.901805	1	
0.0851563	1	0.90201	1	
0.0867188	1	0.902231	1	
0.0882812	1	0.902469	1	
0.0898438	1	0.902723	1	
0.0914063	1	0.902991	1	
0.0929688	1	0.903274	1	
0.0945313	1	0.903569	1	
0.0960937	1	0.903876	1	
0.0976562	1	0.904194	1	
0.0992188	1	0.904522	1	
0.100781	1	0.904857	1	
0.102344	1	0.9052	1	
0.103906	1	0.905548	1	
0.105469	1	0.905902	1	
0.107031	1	0.90626	1	
0.108594	1	0.906622	1	
0.110156	1	0.906987	1	
0.111719	1	0.907356	1	
0.113281	1	0.907728	1	
0.114844	1	0.908104	1	
0.116406	1	0.908484	1	
0.117969	1	0.90887	1	
0.119531	1	0.909261	1	
0.121094	1	0.90966	1	
0.122656	1	0.910066	1	
0.124219	1	0.910482	1	
0.125781	1	0.910908	1	
0.127344	1	0.911345	1	
0.128906	1	0.911794	1	
0.130469	1	0.912256	1	
0.132031	1	0.91273	1	
0.133594	1	0.913216	1	
0.135156	1	0.913716	1	
0.136719	1	0.914227	1	
0.138281	1	0.91475	1	
0.139844	1	0.915285	1	
0.141406	1	0.915828	1	
0.142969	1	0.916381	1	
0.144531	1	0.916942	1	
0.146094	1	0.91751	1	
0.147656	1	0.918084	1	
0.149219	1	0.918663	1	
0.150781	1	0.919247	1	
0.152344	1	0.919835	1	
0.153906	1	0.920428	1	
0.155469	1	0.921025	1	
0.157031	1	0.921627	1	
0.158594	1	0.922234	1	
0.160156	1	0.922848	1	
0.161719	1	0.923468	1	
0.163281	1	0.924096	1	
0.164844	1	0.924732	1	
0.166406	1	0.925377	1	
0.167969	1	0.926031	1	
0.169531	1	0.926695	1	
0.171094	1	0.927368	1	
0.172656	1	0.92805	1	
0.174219	1	0.928742	1	
0.175781	1	0.929443	1	
0.177344	1	0.930151	1	
0.178906	1	0.930867	1	
0.180469	1	0.931589	1	
0.182031	1	0.932318	1	
0.183594	1	0.933052	1	
0.185156	1	0.93379	1	
0.186719	1	0.934533	1	
0.188281	1	0.935281	1	
0.189844	1	0.936033	1	
0.191406	1	0.93679	1	
0.192969	1	0.937552	1	
0.194531	1	0.938319	1	
0.196094	1	0.939091	1	
0.197656	1	0.93987	1	
0.199219	1	0.940656	1	
0.200781	1	0.941448	1	
0.202344	1	0.942248	1	
0.203906	1	0.943054	1	
0.205469	1	0.943867	1	
0.207031	1	0.944686	1	
0.208594	1	0.945512	1	
0.210156	1	0.946343	1	
0.211719	1	0.94718	1	
0.213281	1	0.948021	1	
0.214844	1	0.948867	1	
0.216406	1	0.949717	1	
0.217969	1	0.950571	1	
0.219531	1	0.951428	1	
0.221094	1	0.95229	1	
0.222656	1	0.953155	1	
0.224219	1	0.954025	1	
0.225781	1	0.954899	1	
0.227344	1	0.955777	1	
0.228906	1	0.956659	1	
0.230469	1	0.957547	1	
0.232031	1	0.958439	1	
0.233594	1	0.959336	1	
0.235156	1	0.960237	1	
0.236719	1	0.961143	1	
0.238281	1	0.962053	1	
0.239844	1	0.962966	1	
0.241406	1	0.963883	1	
0.242969	1	0.964804	1	
0.244531	1	0.965727	1	
0.246094	1	0.966653	1	
0.247656	1	0.967582	1	
0.249219	1	0.968514	1	
0.250781	1	0.969449	1	
0.252344	1	0.970386	1	
0.253906	1	0.971326	1	
0.255469	1	0.972269	1	
0.257031	1	0.973214	1	
0.258594	1	0.974163	1	
0.260156	1	0.975114	1	
0.261719	1	0.976068	1	
0.263281	1	0.977025	1	
0.264844	1	0.977984	1	
0.266406	1	0.978945	1	
0.267969	1	0.979908	1	
0.269531	1	0.980874	1	
0.271094	1	0.98184	1	
0.272656	1	0.982809	1	
0.274219	1	0.983779	1	
0.275781	1	0.984751	1	
0.277344	1	0.985723	1	
0.278906	1	0.986698	1	
0.280469	1	0.987674	1	
0.282031	1	0.988651	1	
0.283594	1	0.98963	1	
0.285156	1	0.99061	1	
0.286719	1	0.991591	1	
0.288281	1	0.992574	1	
0.289844	1	0.993559	1	
0.291406	1	0.994545	1	
0.292969	1	0.995533	1	
0.294531	1	0.996522	1	
0.296094	1	0.997512	1	
0.297656	1	0.998502	1	
0.299219	1	0.99949	1	
0.300781	1	1.00048	1	
0.302344	1	1.00146	1	
0.303906	1	1.00245	1	
0.305469	1	1.00343	1	
0.307031	1	1.00442	1	
0.308594	1	1.0054	1	
0.310156	1	1.00638	1	
0.311719	1	1.00737	1	
0.313281	1	1.00835	1	
0.314844	1	1.00933	1	
0.316406	1	1.01031	1	
0.317969	1	1.0113	1	
0.319531	1	1.01228	1	
0.321094	1	1.01326	1	
0.322656	1	1.01423	1	
0.324219	1	1.01521	1	
0.325781	1	1.01618	1	
0.327344	1	1.01715	1	
0.328906	1	1.01812	1	
0.330469	1	1.01909	1	
0.332031	1	1.02005	1	
0.333594	1	1.02101	1	
0.335156	1	1.02197	1	
0.336719	1	1.02292	1	
0.338281	1	1.02388	1	
0.339844	1	1.02483	1	
0.341406	1	1.02578	1	
0.342969	1	1.02672	1	
0.344531	1	1.02767	1	
0.346094	1	1.02861	1	
0.347656	1	1.02955	1	
0.349219	1	1.03049	1	
0.350781	1	1.03143	1	
0.352344	1	1.03237	1	
0.353906	1	1.0333	1	
0.355469	1	1.03423	1	
0.357031	1	1.03516	1	
0.358594	1	1.03608	1	
0.360156	1	1.037	1	
0.361719	1	1.03792	1	
0.363281	1	1.03883	1	
0.364844	1	1.03973	1	
0.366406	1	1.04063	1	
0.367969	1	1.04153	1	
0.369531	1	1.04241	1	
0.371094	1	1.0433	1	
0.372656	1	1.04418	1	
0.374219	1	1.04505	1	
0.375781	1	1.04592	1	
0.377344	1	1.04679	1	
0.378906	1	1.04765	1	
0.380469	1	1.04851	1	
0.382031	1	1.04937	1	
0.383594	1	1.05022	1	
0.385156	1	1.05107	1	
0.386719	1	1.05192	1	
0.388281	1	1.05276	1	
0.389844	1	1.0536	1	
0.391406	1	1.05443	1	
0.392969	1	1.05526	1	
0.394531	1	1.05609	1	
0.396094	1	1.05691	1	
0.397656	1	1.05772	1	
0.399219	1	1.05853	1	
0.400781	1	1.05933	1	
0.402344	1	1.06012	1	
0.403906	1	1.06091	1	
0.405469	1	1.06168	1	
0.407031	1	1.06245	1	
0.408594	1	1.06321	1	
0.410156	1	1.06396	1	
0.411719	1	1.06471	1	
0.413281	1	1.06545	1	
0.414844	1	1.06618	1	
0.416406	1	1.0669	1	
0.417969	1	1.06762	1	
0.419531	1	1.06834	1	
0.421094	1	1.06905	1	
0.422656	1	1.06975	1	
0.424219	1	1.07045	1	
0.425781	1	1.07115	1	
0.427344	1	1.07184	1	
0.428906	1	1.07252	1	
0.430469	1	1.0732	1	
0.432031	1	1.07388	1	
0.433594	1	1.07455	1	
0.435156	1	1.07521	1	
0.436719	1	1.07587	1	
0.438281	1	1.07652	1	
0.439844	1	1.07717	1	
0.441406	1	1.0778	1	
0.442969	1	1.07843	1	
0.444531	1	1.07905	1	
0.446094	1	1.07966	1	
0.447656	1	1.08025	1	
0.449219	1	1.08084	1	
0.450781	1	1.08142	1	
0.452344	1	1.08198	1	
0.453906	1	1.08254	1	
0.455469	1	1.08308	1	
0.457031	1	1.08361	1	
0.458594	1	1.08414	1	
0.460156	1	1.08465	1	
0.461719	1	1.08516	1	
0.463281	1	1.08565	1	
0.464844	1	1.08614	1	
0.466406	1	1.08662	1	
0.467969	1	1.0871	1	
0.469531	1	1.08756	1	
0.471094	1	1.08802	1	
0.472656	1	1.08848	1	
0.474219	1	1.08893	1	
0.475781	1	1.08937	1	
0.477344	1	1.08981	1	
0.478906	1	1.09025	1	
0.480469	1	1.09068	1	
0.482031	1	1.0911	1	
0.483594	1	1.09152	1	
0.485156	1	1.09193	1	
0.486719	1	1.09234	1	
0.488281	1	1.09274	1	
0.489844	1	1.09313	1	
0.491406	1	1.09351	1	
0.492969	1	1.09389	1	
0.494531	1	1.09426	1	
0.496094	1	1.09461	1	
0.497656	1	1.09496	1	
0.499219	1	1.09529	1	
