0.200006
1280
-0.499609	1	1.09504	1	
-0.498828	1	1.09489	1	
-0.498047	1	1.09473	1	
-0.497266	1	1.09458	1	
-0.496484	1	1.09441	1	
-0.495703	1	1.09425	1	
-0.494922	1	1.09409	1	
-0.494141	1	1.09392	1	
-0.493359	1	1.09375	1	
-0.492578	1	1.09358	1	
-0.491797	1	1.0934	1	
-0.491016	1	1.09323	1	
-0.490234	1	1.09305	1	
-0.489453	1	1.09287	1	
-0.488672	1	1.09268	1	
-0.487891	1	1.0925	1	
-0.487109	1	1.09231	1	
-0.486328	1	1.09212	1	
-0.485547	1	1.09193	1	
-0.484766	1	1.09173	1	
-0.483984	1	1.09153	1	
-0.483203	1	1.09134	1	
-0.482422	1	1.09113	1	
-0.481641	1	1.09093	1	
-0.480859	1	1.09073	1	
-0.480078	1	1.09052	1	
-0.479297	1	1.09031	1	
-0.478516	1	1.0901	1	
-0.477734	1	1.08988	1	
-0.476953	1	1.08967	1	
-0.476172	1	1.08945	1	
-0.475391	1	1.08923	1	
-0.474609	1	1.089	1	
-0.473828	1	1.08878	1	
-0.473047	1	1.08855	1	
-0.472266	1	1.08832	1	
-0.471484	1	1.08809	1	
-0.470703	1	1.08786	1	
-0.469922	1	1.08762	1	
-0.469141	1	1.08738	1	
-0.468359	1	1.08714	1	
-0.467578	1	1.0869	1	
-0.466797	1	1.08666	1	
-0.466016	1	1.08641	1	
-0.465234	1	1.08616	1	
-0.464453	1	1.08591	1	
-0.463672	1	1.08566	1	
-0.462891	1	1.08541	1	
-0.462109	1	1.08515	1	
-0.461328	1	1.08489	1	
-0.460547	1	1.08463	1	
-0.459766	1	1.08437	1	
-0.458984	1	1.0841	1	
-0.458203	1	1.08384	1	
-0.457422	1	1.08357	1	
-0.456641	1	1.0833	1	
-0.455859	1	1.08302	1	
-0.455078	1	1.08275	1	
-0.454297	1	1.08247	1	
-0.453516	1	1.08219	1	
-0.452734	1	1.08191	1	
-0.451953	1	1.08163	1	
-0.451172	1	1.08135	1	
-0.450391	1	1.08106	1	
-0.449609	1	1.08077	1	
-0.448828	1	1.08048	1	
-0.448047	1	1.08019	1	
-0.447266	1	1.07989	1	
-0.446484	1	1.0796	1	
-0.445703	1	1.0793	1	
-0.444922	1	1.079	1	
-0.444141	1	1.0787	1	
-0.443359	1	1.07839	1	
-0.442578	1	1.07809	1	
-0.441797	1	1.07778	1	
-0.441016	1	1.07747	1	
-0.440234	1	1.07716	1	
-0.439453	1	1.07685	1	
-0.438672	1	1.07653	1	
-0.437891	1	1.07621	1	
-0.437109	1	1.07589	1	
-0.436328	1	1.07557	1	
-0.435547	1	1.07525	1	
-0.434766	1	1.07493	1	
-0.433984	1	1.0746	1	
-0.433203	1	1.07427	1	
-0.432422	1	1.07394	1	
-0.431641	1	1.07361	1	
-0.430859	1	1.07328	1	
-0.430078	1	1.07294	1	
-0.429297	1	1.07261	1	
-0.428516	1	1.07227	1	
-0.427734	1	1.07193	1	
-0.426953	1	1.07159	1	
-0.426172	1	1.07124	1	
-0.425391	1	1.0709	1	
-0.424609	1	1.07055	1	
-0.423828	1	1.0702	1	
-0.423047	1	1.06985	1	
-0.422266	1	1.0695	1	
-0.421484	1	1.06914	1	
-0.420703	1	1.06879	1	
-0.419922	1	1.06843	1	
-0.419141	1	1.06807	1	
-0.418359	1	1.06771	1	
-0.417578	1	1.06735	1	
-0.416797	1	1.06699	1	
-0.416016	1	1.06662	1	
-0.415234	1	1.06625	1	
-0.414453	1	1.06589	1	
-0.413672	1	1.06552	1	
-0.412891	1	1.06514	1	
-0.412109	1	1.06477	1	
-0.411328	1	1.0644	1	
-0.410547	1	1.06402	1	
-0.409766	1	1.06364	1	
-0.408984	1	1.06326	1	
-0.408203	1	1.06288	1	
-0.407422	1	1.0625	1	
-0.406641	1	1.06211	1	
-0.405859	1	1.06173	1	
-0.405078	1	1.06134	1	
-0.404297	1	1.06095	1	
-0.403516	1	1.06056	1	
-0.402734	1	1.06017	1	
-0.401953	1	1.05978	1	
-0.401172	1	1.05938	1	
-0.400391	1	1.05899	1	
-0.399609	1	1.05859	1	
-0.398828	1	1.05819	1	
-0.398047	1	1.05779	1	
-0.397266	1	1.05739	1	
-0.396484	1	1.05699	1	
-0.395703	1	1.05658	1	
-0.394922	1	1.05618	1	
-0.394141	1	1.05577	1	
-0.393359	1	1.05536	1	
-0.392578	1	1.05495	1	
-0.391797	1	1.05454	1	
-0.391016	1	1.05413	1	
-0.390234	1	1.05372	1	
-0.389453	1	1.0533	1	
-0.388672	1	1.05289	1	
-0.387891	1	1.05247	1	
-0.387109	1	1.05205	1	
-0.386328	1	1.05163	1	
-0.385547	1	1.05121	1	
-0.384766	1	1.05079	1	
-0.383984	1	1.05036	1	
-0.383203	1	1.04994	1	
-0.382422	1	1.04951	1	
-0.381641	1	1.04909	1	
-0.380859	1	1.04866	1	
-0.380078	1	1.04823	1	
-0.379297	1	1.0478	1	
-0.378516	1	1.04737	1	
-0.377734	1	1.04693	1	
-0.376953	1	1.0465	1	
-0.376172	1	1.04606	1	
-0.375391	1	1.04563	1	
-0.374609	1	1.04519	1	
-0.373828	1	1.04475	1	
-0.373047	1	1.04431	1	
-0.372266	1	1.04387	1	
-0.371484	1	1.04343	1	
-0.370703	1	1.04299	1	
-0.369922	1	1.04254	1	
-0.369141	1	1.0421	1	
-0.368359	1	1.04165	1	
-0.367578	1	1.04121	1	
-0.366797	1	1.04076	1	
-0.366016	1	1.04031	1	
-0.365234	1	1.03986	1	
-0.364453	1	1.03941	1	
-0.363672	1	1.03896	1	
-0.362891	1	1.0385	1	
-0.362109	1	1.03805	1	
-0.361328	1	1.0376	1	
-0.360547	1	1.03714	1	
-0.359766	1	1.03668	1	
-0.358984	1	1.03623	1	
-0.358203	1	1.03577	1	
-0.357422	1	1.03531	1	
-0.356641	1	1.03485	1	
-0.355859	1	1.03439	1	
-0.355078	1	1.03393	1	
-0.354297	1	1.03347	1	
-0.353516	1	1.033	1	
-0.352734	1	1.03254	1	
-0.351953	1	1.03208	1	
-0.351172	1	1.03161	1	
-0.350391	1	1.03114	1	
-0.349609	1	1.03068	1	
-0.348828	1	1.03021	1	
-0.348047	1	1.02974	1	
-0.347266	1	1.02927	1	
-0.346484	1	1.0288	1	
-0.345703	1	1.02833	1	
-0.344922	1	1.02786	1	
-0.344141	1	1.02739	1	
-0.343359	1	1.02692	1	
-0.342578	1	1.02644	1	
-0.341797	1	1.02597	1	
-0.341016	1	1.02549	1	
-0.340234	1	1.02502	1	
-0.339453	1	1.02454	1	
-0.338672	1	1.02407	1	
-0.337891	1	1.02359	1	
-0.337109	1	1.02311	1	
-0.336328	1	1.02264	1	
-0.335547	1	1.02216	1	
-0.334766	1	1.02168	1	
-0.333984	1	1.0212	1	
-0.333203	1	1.02072	1	
-0.332422	1	1.02024	1	
-0.331641	1	1.01976	1	
-0.330859	1	1.01928	1	
-0.330078	1	1.01879	1	
-0.329297	1	1.01831	1	
-0.328516	1	1.01783	1	
-0.327734	1	1.01734	1	
-0.326953	1	1.01686	1	
-0.326172	1	1.01638	1	
-0.325391	1	1.01589	1	
-0.324609	1	1.01541	1	
-0.323828	1	1.01492	1	
-0.323047	1	1.01444	1	
-0.322266	1	1.01395	1	
-0.321484	1	1.01346	1	
-0.320703	1	1.01298	1	
-0.319922	1	1.01249	1	
-0.319141	1	1.012	1	
-0.318359	1	1.01152	1	
-0.317578	1	1.01103	1	
-0.316797	1	1.01054	1	
-0.316016	1	1.01005	1	
-0.315234	1	1.00956	1	
-0.314453	1	1.00907	1	
-0.313672	1	1.00859	1	
-0.312891	1	1.0081	1	
-0.312109	1	1.00761	1	
-0.311328	1	1.00712	1	
-0.310547	1	1.00663	1	
-0.309766	1	1.00614	1	
-0.308984	1	1.00565	1	
-0.308203	1	1.00516	1	
-0.307422	1	1.00467	1	
-0.306641	1	1.00418	1	
-0.305859	1	1.00369	1	
-0.305078	1	1.00319	1	
-0.304297	1	1.0027	1	
-0.303516	1	1.00221	1	
-0.302734	1	1.00172	1	
-0.301953	1	1.00123	1	
-0.301172	1	1.00074	1	
-0.300391	1	1.00025	1	
-0.299609	1	0.999758	1	
-0.298828	1	0.999267	1	
-0.298047	1	0.998776	1	
-0.297266	1	0.998285	1	
-0.296484	1	0.997794	1	
-0.295703	1	0.997303	1	
-0.294922	1	0.996812	1	
-0.294141	1	0.996321	1	
-0.293359	1	0.995831	1	
-0.292578	1	0.99534	1	
-0.291797	1	0.99485	1	
-0.291016	1	0.99436	1	
-0.290234	1	0.99387	1	
-0.289453	1	0.99338	1	
-0.288672	1	0.99289	1	
-0.287891	1	0.9924	1	
-0.287109	1	0.991911	1	
-0.286328	1	0.991422	1	
-0.285547	1	0.990933	1	
-0.284766	1	0.990444	1	
-0.283984	1	0.989955	1	
-0.283203	1	0.989467	1	
-0.282422	1	0.988979	1	
-0.281641	1	0.988491	1	
-0.280859	1	0.988003	1	
-0.280078	1	0.987516	1	
-0.279297	1	0.987029	1	
-0.278516	1	0.986543	1	
-0.277734	1	0.986056	1	
-0.276953	1	0.98557	1	
-0.276172	1	0.985085	1	
-0.275391	1	0.984599	1	
-0.274609	1	0.984114	1	
-0.273828	1	0.98363	1	
-0.273047	1	0.983146	1	
-0.272266	1	0.982662	1	
-0.271484	1	0.982179	1	
-0.270703	1	0.981696	1	
-0.269922	1	0.981214	1	
-0.269141	1	0.980732	1	
-0.268359	1	0.98025	1	
-0.267578	1	0.979769	1	
-0.266797	1	0.979288	1	
-0.266016	1	0.978808	1	
-0.265234	1	0.978329	1	
-0.264453	1	0.97785	1	
-0.263672	1	0.977371	1	
-0.262891	1	0.976893	1	
-0.262109	1	0.976416	1	
-0.261328	1	0.975939	1	
-0.260547	1	0.975463	1	
-0.259766	1	0.974987	1	
-0.258984	1	0.974512	1	
-0.258203	1	0.974038	1	
-0.257422	1	0.973564	1	
-0.256641	1	0.973091	1	
-0.255859	1	0.972618	1	
-0.255078	1	0.972147	1	
-0.254297	1	0.971675	1	
-0.253516	1	0.971205	1	
-0.252734	1	0.970735	1	
-0.251953	1	0.970266	1	
-0.251172	1	0.969798	1	
-0.250391	1	0.96933	1	
-0.249609	1	0.968863	1	
-0.248828	1	0.968397	1	
-0.248047	1	0.967931	1	
-0.247266	1	0.967467	1	
-0.246484	1	0.967003	1	
-0.245703	1	0.96654	1	
-0.244922	1	0.966078	1	
-0.244141	1	0.965616	1	
-0.243359	1	0.965156	1	
-0.242578	1	0.964696	1	
-0.241797	1	0.964237	1	
-0.241016	1	0.963779	1	
-0.240234	1	0.963322	1	
-0.239453	1	0.962865	1	
-0.238672	1	0.96241	1	
-0.237891	1	0.961956	1	
-0.237109	1	0.961502	1	
-0.236328	1	0.961049	1	
-0.235547	1	0.960598	1	
-0.234766	1	0.960147	1	
-0.233984	1	0.959697	1	
-0.233203	1	0.959248	1	
-0.232422	1	0.9588	1	
-0.231641	1	0.958354	1	
-0.230859	1	0.957908	1	
-0.230078	1	0.957463	1	
-0.229297	1	0.957019	1	
-0.228516	1	0.956576	1	
-0.227734	1	0.956135	1	
-0.226953	1	0.955694	1	
-0.226172	1	0.955254	1	
-0.225391	1	0.954816	1	
-0.224609	1	0.954378	1	
-0.223828	1	0.953942	1	
-0.223047	1	0.953507	1	
-0.222266	1	0.953073	1	
-0.221484	1	0.95264	1	
-0.220703	1	0.952208	1	
-0.219922	1	0.951777	1	
-0.219141	1	0.951348	1	
-0.218359	1	0.950919	1	
-0.217578	1	0.950492	1	
-0.216797	1	0.950066	1	
-0.216016	1	0.949641	1	
-0.215234	1	0.949218	1	
-0.214453	1	0.948795	1	
-0.213672	1	0.948374	1	
-0.212891	1	0.947954	1	
-0.212109	1	0.947536	1	
-0.211328	1	0.947118	1	
-0.210547	1	0.946702	1	
-0.209766	1	0.946288	1	
-0.208984	1	0.945874	1	
-0.208203	1	0.945462	1	
-0.207422	1	0.945051	1	
-0.206641	1	0.944642	1	
-0.205859	1	0.944233	1	
-0.205078	1	0.943826	1	
-0.204297	1	0.943421	1	
-0.203516	1	0.943017	1	
-0.202734	1	0.942614	1	
-0.201953	1	0.942213	1	
-0.201172	1	0.941813	1	
-0.200391	1	0.941414	1	
-0.199609	1	0.941017	1	
-0.198828	1	0.940621	1	
-0.198047	1	0.940227	1	
-0.197266	1	0.939834	1	
-0.196484	1	0.939442	1	
-0.195703	1	0.939052	1	
-0.194922	1	0.938664	1	
-0.194141	1	0.938277	1	
-0.193359	1	0.937891	1	
-0.192578	1	0.937507	1	
-0.191797	1	0.937125	1	
-0.191016	1	0.936744	1	
-0.190234	1	0.936364	1	
-0.189453	1	0.935986	1	
-0.188672	1	0.93561	1	
-0.187891	1	0.935235	1	
-0.187109	1	0.934862	1	
-0.186328	1	0.93449	1	
-0.185547	1	0.93412	1	
-0.184766	1	0.933751	1	
-0.183984	1	0.933384	1	
-0.183203	1	0.933019	1	
-0.182422	1	0.932655	1	
-0.181641	1	0.932293	1	
-0.180859	1	0.931932	1	
-0.180078	1	0.931573	1	
-0.179297	1	0.931216	1	
-0.178516	1	0.930861	1	
-0.177734	1	0.930507	1	
-0.176953	1	0.930154	1	
-0.176172	1	0.929804	1	
-0.175391	1	0.929455	1	
-0.174609	1	0.929108	1	
-0.173828	1	0.928762	1	
-0.173047	1	0.928419	1	
-0.172266	1	0.928077	1	
-0.171484	1	0.927736	1	
-0.170703	1	0.927398	1	
-0.169922	1	0.927061	1	
-0.169141	1	0.926726	1	
-0.168359	1	0.926393	1	
-0.167578	1	0.926061	1	
-0.166797	1	0.925732	1	
-0.166016	1	0.925404	1	
-0.165234	1	0.925078	1	
-0.164453	1	0.924753	1	
-0.163672	1	0.924431	1	
-0.162891	1	0.92411	1	
-0.162109	1	0.923791	1	
-0.161328	1	0.923474	1	
-0.160547	1	0.923159	1	
-0.159766	1	0.922846	1	
-0.158984	1	0.922534	1	
-0.158203	1	0.922225	1	
-0.157422	1	0.921917	1	
-0.156641	1	0.921611	1	
-0.155859	1	0.921307	1	
-0.155078	1	0.921005	1	
-0.154297	1	0.920705	1	
-0.153516	1	0.920407	1	
-0.152734	1	0.92011	1	
-0.151953	1	0.919816	1	
-0.151172	1	0.919524	1	
-0.150391	1	0.919233	1	
-0.149609	1	0.918944	1	
-0.148828	1	0.918658	1	
-0.148047	1	0.918373	1	
-0.147266	1	0.91809	1	
-0.146484	1	0.91781	1	
-0.145703	1	0.917531	1	
-0.144922	1	0.917254	1	
-0.144141	1	0.91698	1	
-0.143359	1	0.916707	1	
-0.142578	1	0.916436	1	
-0.141797	1	0.916167	1	
-0.141016	1	0.915901	1	
-0.140234	1	0.915636	1	
-0.139453	1	0.915373	1	
-0.138672	1	0.915112	1	
-0.137891	1	0.914854	1	
-0.137109	1	0.914597	1	
-0.136328	1	0.914343	1	
-0.135547	1	0.91409	1	
-0.134766	1	0.91384	1	
-0.133984	1	0.913592	1	
-0.133203	1	0.913346	1	
-0.132422	1	0.913102	1	
-0.131641	1	0.91286	1	
-0.130859	1	0.91262	1	
-0.130078	1	0.912382	1	
-0.129297	1	0.912146	1	
-0.128516	1	0.911913	1	
-0.127734	1	0.911681	1	
-0.126953	1	0.911452	1	
-0.126172	1	0.911225	1	
-0.125391	1	0.910999	1	
-0.124609	1	0.910777	1	
-0.123828	1	0.910556	1	
-0.123047	1	0.910338	1	
-0.122266	1	0.910121	1	
-0.121484	1	0.909907	1	
-0.120703	1	0.909695	1	
-0.119922	1	0.909485	1	
-0.119141	1	0.909278	1	
-0.118359	1	0.909072	1	
-0.117578	1	0.908868	1	
-0.116797	1	0.908667	1	
-0.116016	1	0.908468	1	
-0.115234	1	0.908271	1	
-0.114453	1	0.908076	1	
-0.113672	1	0.907884	1	
-0.112891	1	0.907694	1	
-0.112109	1	0.907506	1	
-0.111328	1	0.907321	1	
-0.110547	1	0.907138	1	
-0.109766	1	0.906957	1	
-0.108984	1	0.906778	1	
-0.108203	1	0.906602	1	
-0.107422	1	0.906427	1	
-0.106641	1	0.906255	1	
-0.105859	1	0.906085	1	
-0.105078	1	0.905917	1	
-0.104297	1	0.905751	1	
-0.103516	1	0.905587	1	
-0.102734	1	0.905426	1	
-0.101953	1	0.905267	1	
-0.101172	1	0.90511	1	
-0.100391	1	0.904956	1	
-0.0996094	1	0.904804	1	
-0.0988281	1	0.904655	1	
-0.0980469	1	0.904509	1	
-0.0972656	1	0.904365	1	
-0.0964844	1	0.904223	1	
-0.0957031	1	0.904084	1	
-0.0949219	1	0.903946	1	
-0.0941406	1	0.903812	1	
-0.0933594	1	0.903679	1	
-0.0925781	1	0.903548	1	
-0.0917969	1	0.903419	1	
-0.0910156	1	0.903292	1	
-0.0902344	1	0.903167	1	
-0.0894531	1	0.903044	1	
-0.0886719	1	0.902924	1	
-0.0878906	1	0.902806	1	
-0.0871094	1	0.90269	1	
-0.0863281	1	0.902576	1	
-0.0855469	1	0.902466	1	
-0.0847656	1	0.902358	1	
-0.0839844	1	0.902253	1	
-0.0832031	1	0.902151	1	
-0.0824219	1	0.902051	1	
-0.0816406	1	0.901954	1	
-0.0808594	1	0.90186	1	
-0.0800781	1	0.901769	1	
-0.0792969	1	0.90168	1	
-0.0785156	1	0.901593	1	
-0.0777344	1	0.901509	1	
-0.0769531	1	0.901426	1	
-0.0761719	1	0.901346	1	
-0.0753906	1	0.901267	1	
-0.0746094	1	0.901189	1	
-0.0738281	1	0.901114	1	
-0.0730469	1	0.90104	1	
-0.0722656	1	0.900968	1	
-0.0714844	1	0.900898	1	
-0.0707031	1	0.90083	1	
-0.0699219	1	0.900764	1	
-0.0691406	1	0.9007	1	
-0.0683594	1	0.900639	1	
-0.0675781	1	0.900581	1	
-0.0667969	1	0.900525	1	
-0.0660156	1	0.900473	1	
-0.0652344	1	0.900423	1	
-0.0644531	1	0.900377	1	
-0.0636719	1	0.900335	1	
-0.0628906	1	0.900296	1	
-0.0621094	1	0.90026	1	
-0.0613281	1	0.900228	1	
-0.0605469	1	0.900199	1	
-0.0597656	1	0.900174	1	
-0.0589844	1	0.900151	1	
-0.0582031	1	0.900132	1	
-0.0574219	1	0.900116	1	
-0.0566406	1	0.900102	1	
-0.0558594	1	0.90009	1	
-0.0550781	1	0.900081	1	
-0.0542969	1	0.900074	1	
-0.0535156	1	0.900068	1	
-0.0527344	1	0.900064	1	
-0.0519531	1	0.900061	1	
-0.0511719	1	0.90006	1	
-0.0503906	1	0.900059	1	
-0.0496094	1	0.900058	1	
-0.0488281	1	0.900058	1	
-0.0480469	1	0.900058	1	
-0.0472656	1	0.900059	1	
-0.0464844	1	0.900061	1	
-0.0457031	1	0.900064	1	
-0.0449219	1	0.900069	1	
-0.0441406	1	0.900076	1	
-0.0433594	1	0.900086	1	
-0.0425781	1	0.900099	1	
-0.0417969	1	0.900116	1	
-0.0410156	1	0.900136	1	
-0.0402344	1	0.90016	1	
-0.0394531	1	0.900187	1	
-0.0386719	1	0.900219	1	
-0.0378906	1	0.900255	1	
-0.0371094	1	0.900294	1	
-0.0363281	1	0.900337	1	
-0.0355469	1	0.900384	1	
-0.0347656	1	0.900433	1	
-0.0339844	1	0.900485	1	
-0.0332031	1	0.90054	1	
-0.0324219	1	0.900596	1	
-0.0316406	1	0.900655	1	
-0.0308594	1	0.900715	1	
-0.0300781	1	0.900776	1	
-0.0292969	1	0.900839	1	
-0.0285156	1	0.900904	1	
-0.0277344	1	0.90097	1	
-0.0269531	1	0.901038	1	
-0.0261719	1	0.901108	1	
-0.0253906	1	0.90118	1	
-0.0246094	1	0.901255	1	
-0.0238281	1	0.901332	1	
-0.0230469	1	0.901413	1	
-0.0222656	1	0.901496	1	
-0.0214844	1	0.901582	1	
-0.0207031	1	0.901671	1	
-0.0199219	1	0.901763	1	
-0.0191406	1	0.901857	1	
-0.0183594	1	0.901954	1	
-0.0175781	1	0.902054	1	
-0.0167969	1	0.902155	1	
-0.0160156	1	0.902258	1	
-0.0152344	1	0.902364	1	
-0.0144531	1	0.902471	1	
-0.0136719	1	0.902581	1	
-0.0128906	1	0.902693	1	
-0.0121094	1	0.902806	1	
-0.0113281	1	0.902923	1	
-0.0105469	1	0.903042	1	
-0.00976562	1	0.903163	1	
-0.00898437	1	0.903287	1	
-0.00820312	1	0.903413	1	
-0.00742187	1	0.903542	1	
-0.00664062	1	0.903673	1	
-0.00585938	1	0.903807	1	
-0.00507812	1	0.903942	1	
-0.00429687	1	0.90408	1	
-0.00351562	1	0.904221	1	
-0.00273437	1	0.904363	1	
-0.00195312	1	0.904508	1	
-0.00117187	1	0.904655	1	
-0.000390625	1	0.904804	1	
0.000390625	1	0.904956	1	
0.00117188	1	0.90511	1	
0.00195312	1	0.905266	1	
0.00273438	1	0.905424	1	
0.00351563	1	0.905585	1	
0.00429687	1	0.905748	1	
0.00507813	1	0.905914	1	
0.00585938	1	0.906081	1	
0.00664063	1	0.906251	1	
0.00742188	1	0.906424	1	
0.00820312	1	0.906598	1	
0.00898438	1	0.906775	1	
0.00976562	1	0.906954	1	
0.0105469	1	0.907135	1	
0.0113281	1	0.907318	1	
0.0121094	1	0.907504	1	
0.0128906	1	0.907691	1	
0.0136719	1	0.907882	1	
0.0144531	1	0.908074	1	
0.0152344	1	0.908268	1	
0.0160156	1	0.908465	1	
0.0167969	1	0.908664	1	
0.0175781	1	0.908865	1	
0.0183594	1	0.909068	1	
0.0191406	1	0.909274	1	
0.0199219	1	0.909482	1	
0.0207031	1	0.909692	1	
0.0214844	1	0.909904	1	
0.0222656	1	0.910118	1	
0.0230469	1	0.910334	1	
0.0238281	1	0.910553	1	
0.0246094	1	0.910773	1	
0.0253906	1	0.910996	1	
0.0261719	1	0.911221	1	
0.0269531	1	0.911448	1	
0.0277344	1	0.911678	1	
0.0285156	1	0.911909	1	
0.0292969	1	0.912143	1	
0.0300781	1	0.912378	1	
0.0308594	1	0.912616	1	
0.0316406	1	0.912856	1	
0.0324219	1	0.913098	1	
0.0332031	1	0.913342	1	
0.0339844	1	0.913588	1	
0.0347656	1	0.913836	1	
0.0355469	1	0.914087	1	
0.0363281	1	0.914339	1	
0.0371094	1	0.914593	1	
0.0378906	1	0.91485	1	
0.0386719	1	0.915108	1	
0.0394531	1	0.915369	1	
0.0402344	1	0.915632	1	
0.0410156	1	0.915896	1	
0.0417969	1	0.916163	1	
0.0425781	1	0.916432	1	
0.0433594	1	0.916703	1	
0.0441406	1	0.916975	1	
0.0449219	1	0.91725	1	
0.0457031	1	0.917527	1	
0.0464844	1	0.917805	1	
0.0472656	1	0.918086	1	
0.0480469	1	0.918369	1	
0.0488281	1	0.918653	1	
0.0496094	1	0.91894	1	
0.0503906	1	0.919229	1	
0.0511719	1	0.919519	1	
0.0519531	1	0.919811	1	
0.0527344	1	0.920106	1	
0.0535156	1	0.920402	1	
0.0542969	1	0.9207	1	
0.0550781	1	0.921	1	
0.0558594	1	0.921302	1	
0.0566406	1	0.921606	1	
0.0574219	1	0.921912	1	
0.0582031	1	0.92222	1	
0.0589844	1	0.922529	1	
0.0597656	1	0.922841	1	
0.0605469	1	0.923154	1	
0.0613281	1	0.923469	1	
0.0621094	1	0.923786	1	
0.0628906	1	0.924105	1	
0.0636719	1	0.924426	1	
0.0644531	1	0.924748	1	
0.0652344	1	0.925073	1	
0.0660156	1	0.925399	1	
0.0667969	1	0.925726	1	
0.0675781	1	0.926056	1	
0.0683594	1	0.926388	1	
0.0691406	1	0.926721	1	
0.0699219	1	0.927056	1	
0.0707031	1	0.927393	1	
0.0714844	1	0.927731	1	
0.0722656	1	0.928071	1	
0.0730469	1	0.928413	1	
0.0738281	1	0.928757	1	
0.0746094	1	0.929102	1	
0.0753906	1	0.92945	1	
0.0761719	1	0.929798	1	
0.0769531	1	0.930149	1	
0.0777344	1	0.930501	1	
0.0785156	1	0.930855	1	
0.0792969	1	0.931211	1	
0.0800781	1	0.931568	1	
0.0808594	1	0.931927	1	
0.0816406	1	0.932287	1	
0.0824219	1	0.932649	1	
0.0832031	1	0.933013	1	
0.0839844	1	0.933378	1	
0.0847656	1	0.933745	1	
0.0855469	1	0.934114	1	
0.0863281	1	0.934484	1	
0.0871094	1	0.934856	1	
0.0878906	1	0.935229	1	
0.0886719	1	0.935604	1	
0.0894531	1	0.93598	1	
0.0902344	1	0.936358	1	
0.0910156	1	0.936738	1	
0.0917969	1	0.937119	1	
0.0925781	1	0.937501	1	
0.0933594	1	0.937885	1	
0.0941406	1	0.938271	1	
0.0949219	1	0.938658	1	
0.0957031	1	0.939046	1	
0.0964844	1	0.939436	1	
0.0972656	1	0.939828	1	
0.0980469	1	0.940221	1	
0.0988281	1	0.940615	1	
0.0996094	1	0.941011	1	
0.100391	1	0.941408	1	
0.101172	1	0.941806	1	
0.101953	1	0.942206	1	
0.102734	1	0.942608	1	
0.103516	1	0.943011	1	
0.104297	1	0.943415	1	
0.105078	1	0.94382	1	
0.105859	1	0.944227	1	
0.106641	1	0.944635	1	
0.107422	1	0.945045	1	
0.108203	1	0.945456	1	
0.108984	1	0.945868	1	
0.109766	1	0.946281	1	
0.110547	1	0.946696	1	
0.111328	1	0.947112	1	
0.112109	1	0.947529	1	
0.112891	1	0.947948	1	
0.113672	1	0.948368	1	
0.114453	1	0.948789	1	
0.115234	1	0.949211	1	
0.116016	1	0.949635	1	
0.116797	1	0.950059	1	
0.117578	1	0.950485	1	
0.118359	1	0.950913	1	
0.119141	1	0.951341	1	
0.119922	1	0.95177	1	
0.120703	1	0.952201	1	
0.121484	1	0.952633	1	
0.122266	1	0.953066	1	
0.123047	1	0.9535	1	
0.123828	1	0.953935	1	
0.124609	1	0.954371	1	
0.125391	1	0.954809	1	
0.126172	1	0.955247	1	
0.126953	1	0.955687	1	
0.127734	1	0.956128	1	
0.128516	1	0.956569	1	
0.129297	1	0.957012	1	
0.130078	1	0.957456	1	
0.130859	1	0.957901	1	
0.131641	1	0.958347	1	
0.132422	1	0.958793	1	
0.133203	1	0.959241	1	
0.133984	1	0.95969	1	
0.134766	1	0.96014	1	
0.135547	1	0.960591	1	
0.136328	1	0.961042	1	
0.137109	1	0.961495	1	
0.137891	1	0.961948	1	
0.138672	1	0.962403	1	
0.139453	1	0.962858	1	
0.140234	1	0.963315	1	
0.141016	1	0.963772	1	
0.141797	1	0.96423	1	
0.142578	1	0.964689	1	
0.143359	1	0.965148	1	
0.144141	1	0.965609	1	
0.144922	1	0.96607	1	
0.145703	1	0.966533	1	
0.146484	1	0.966996	1	
0.147266	1	0.96746	1	
0.148047	1	0.967924	1	
0.148828	1	0.96839	1	
0.149609	1	0.968856	1	
0.150391	1	0.969323	1	
0.151172	1	0.96979	1	
0.151953	1	0.970259	1	
0.152734	1	0.970728	1	
0.153516	1	0.971198	1	
0.154297	1	0.971668	1	
0.155078	1	0.972139	1	
0.155859	1	0.972611	1	
0.156641	1	0.973084	1	
0.157422	1	0.973557	1	
0.158203	1	0.974031	1	
0.158984	1	0.974505	1	
0.159766	1	0.97498	1	
0.160547	1	0.975456	1	
0.161328	1	0.975932	1	
0.162109	1	0.976409	1	
0.162891	1	0.976886	1	
0.163672	1	0.977364	1	
0.164453	1	0.977842	1	
0.165234	1	0.978321	1	
0.166016	1	0.978801	1	
0.166797	1	0.979281	1	
0.167578	1	0.979762	1	
0.168359	1	0.980243	1	
0.169141	1	0.980724	1	
0.169922	1	0.981206	1	
0.170703	1	0.981688	1	
0.171484	1	0.982171	1	
0.172266	1	0.982655	1	
0.173047	1	0.983138	1	
0.173828	1	0.983622	1	
0.174609	1	0.984107	1	
0.175391	1	0.984592	1	
0.176172	1	0.985077	1	
0.176953	1	0.985563	1	
0.177734	1	0.986049	1	
0.178516	1	0.986535	1	
0.179297	1	0.987022	1	
0.180078	1	0.987509	1	
0.180859	1	0.987996	1	
0.181641	1	0.988483	1	
0.182422	1	0.988971	1	
0.183203	1	0.989459	1	
0.183984	1	0.989948	1	
0.184766	1	0.990436	1	
0.185547	1	0.990925	1	
0.186328	1	0.991414	1	
0.187109	1	0.991903	1	
0.187891	1	0.992393	1	
0.188672	1	0.992882	1	
0.189453	1	0.993372	1	
0.190234	1	0.993862	1	
0.191016	1	0.994352	1	
0.191797	1	0.994842	1	
0.192578	1	0.995333	1	
0.193359	1	0.995823	1	
0.194141	1	0.996314	1	
0.194922	1	0.996805	1	
0.195703	1	0.997295	1	
0.196484	1	0.997786	1	
0.197266	1	0.998277	1	
0.198047	1	0.998769	1	
0.198828	1	0.99926	1	
0.199609	1	0.999751	1	
0.200391	1	1.00024	1	
0.201172	1	1.00073	1	
0.201953	1	1.00122	1	
0.202734	1	1.00172	1	
0.203516	1	1.00221	1	
0.204297	1	1.0027	1	
0.205078	1	1.00319	1	
0.205859	1	1.00368	1	
0.206641	1	1.00417	1	
0.207422	1	1.00466	1	
0.208203	1	1.00515	1	
0.208984	1	1.00564	1	
0.209766	1	1.00613	1	
0.210547	1	1.00662	1	
0.211328	1	1.00711	1	
0.212109	1	1.0076	1	
0.212891	1	1.00809	1	
0.213672	1	1.00858	1	
0.214453	1	1.00907	1	
0.215234	1	1.00956	1	
0.216016	1	1.01005	1	
0.216797	1	1.01053	1	
0.217578	1	1.01102	1	
0.218359	1	1.01151	1	
0.219141	1	1.012	1	
0.219922	1	1.01248	1	
0.220703	1	1.01297	1	
0.221484	1	1.01346	1	
0.222266	1	1.01394	1	
0.223047	1	1.01443	1	
0.223828	1	1.01492	1	
0.224609	1	1.0154	1	
0.225391	1	1.01589	1	
0.226172	1	1.01637	1	
0.226953	1	1.01685	1	
0.227734	1	1.01734	1	
0.228516	1	1.01782	1	
0.229297	1	1.0183	1	
0.230078	1	1.01879	1	
0.230859	1	1.01927	1	
0.231641	1	1.01975	1	
0.232422	1	1.02023	1	
0.233203	1	1.02071	1	
0.233984	1	1.02119	1	
0.234766	1	1.02167	1	
0.235547	1	1.02215	1	
0.236328	1	1.02263	1	
0.237109	1	1.02311	1	
0.237891	1	1.02358	1	
0.238672	1	1.02406	1	
0.239453	1	1.02454	1	
0.240234	1	1.02501	1	
0.241016	1	1.02549	1	
0.241797	1	1.02596	1	
0.242578	1	1.02644	1	
0.243359	1	1.02691	1	
0.244141	1	1.02738	1	
0.244922	1	1.02785	1	
0.245703	1	1.02833	1	
0.246484	1	1.0288	1	
0.247266	1	1.02927	1	
0.248047	1	1.02973	1	
0.248828	1	1.0302	1	
0.249609	1	1.03067	1	
0.250391	1	1.03114	1	
0.251172	1	1.0316	1	
0.251953	1	1.03207	1	
0.252734	1	1.03253	1	
0.253516	1	1.033	1	
0.254297	1	1.03346	1	
0.255078	1	1.03392	1	
0.255859	1	1.03438	1	
0.256641	1	1.03485	1	
0.257422	1	1.0353	1	
0.258203	1	1.03576	1	
0.258984	1	1.03622	1	
0.259766	1	1.03668	1	
0.260547	1	1.03714	1	
0.261328	1	1.03759	1	
0.262109	1	1.03805	1	
0.262891	1	1.0385	1	
0.263672	1	1.03895	1	
0.264453	1	1.0394	1	
0.265234	1	1.03985	1	
0.266016	1	1.0403	1	
0.266797	1	1.04075	1	
0.267578	1	1.0412	1	
0.268359	1	1.04165	1	
0.269141	1	1.04209	1	
0.269922	1	1.04254	1	
0.270703	1	1.04298	1	
0.271484	1	1.04342	1	
0.272266	1	1.04387	1	
0.273047	1	1.04431	1	
0.273828	1	1.04475	1	
0.274609	1	1.04518	1	
0.275391	1	1.04562	1	
0.276172	1	1.04606	1	
0.276953	1	1.04649	1	
0.277734	1	1.04693	1	
0.278516	1	1.04736	1	
0.279297	1	1.04779	1	
0.280078	1	1.04822	1	
0.280859	1	1.04865	1	
0.281641	1	1.04908	1	
0.282422	1	1.04951	1	
0.283203	1	1.04993	1	
0.283984	1	1.05036	1	
0.284766	1	1.05078	1	
0.285547	1	1.05121	1	
0.286328	1	1.05163	1	
0.287109	1	1.05205	1	
0.287891	1	1.05246	1	
0.288672	1	1.05288	1	
0.289453	1	1.0533	1	
0.290234	1	1.05371	1	
0.291016	1	1.05413	1	
0.291797	1	1.05454	1	
0.292578	1	1.05495	1	
0.293359	1	1.05536	1	
0.294141	1	1.05577	1	
0.294922	1	1.05617	1	
0.295703	1	1.05658	1	
0.296484	1	1.05698	1	
0.297266	1	1.05739	1	
0.298047	1	1.05779	1	
0.298828	1	1.05819	1	
0.299609	1	1.05859	1	
0.300391	1	1.05898	1	
0.301172	1	1.05938	1	
0.301953	1	1.05977	1	
0.302734	1	1.06017	1	
0.303516	1	1.06056	1	
0.304297	1	1.06095	1	
0.305078	1	1.06134	1	
0.305859	1	1.06172	1	
0.306641	1	1.06211	1	
0.307422	1	1.06249	1	
0.308203	1	1.06288	1	
0.308984	1	1.06326	1	
0.309766	1	1.06364	1	
0.310547	1	1.06401	1	
0.311328	1	1.06439	1	
0.312109	1	1.06477	1	
0.312891	1	1.06514	1	
0.313672	1	1.06551	1	
0.314453	1	1.06588	1	
0.315234	1	1.06625	1	
0.316016	1	1.06662	1	
0.316797	1	1.06698	1	
0.317578	1	1.06735	1	
0.318359	1	1.06771	1	
0.319141	1	1.06807	1	
0.319922	1	1.06843	1	
0.320703	1	1.06878	1	
0.321484	1	1.06914	1	
0.322266	1	1.06949	1	
0.323047	1	1.06985	1	
0.323828	1	1.0702	1	
0.324609	1	1.07055	1	
0.325391	1	1.07089	1	
0.326172	1	1.07124	1	
0.326953	1	1.07158	1	
0.327734	1	1.07192	1	
0.328516	1	1.07226	1	
0.329297	1	1.0726	1	
0.330078	1	1.07294	1	
0.330859	1	1.07327	1	
0.331641	1	1.07361	1	
0.332422	1	1.07394	1	
0.333203	1	1.07427	1	
0.333984	1	1.0746	1	
0.334766	1	1.07492	1	
0.335547	1	1.07525	1	
0.336328	1	1.07557	1	
0.337109	1	1.07589	1	
0.337891	1	1.07621	1	
0.338672	1	1.07653	1	
0.339453	1	1.07684	1	
0.340234	1	1.07715	1	
0.341016	1	1.07747	1	
0.341797	1	1.07778	1	
0.342578	1	1.07808	1	
0.343359	1	1.07839	1	
0.344141	1	1.07869	1	
0.344922	1	1.079	1	
0.345703	1	1.0793	1	
0.346484	1	1.07959	1	
0.347266	1	1.07989	1	
0.348047	1	1.08018	1	
0.348828	1	1.08048	1	
0.349609	1	1.08077	1	
0.350391	1	1.08106	1	
0.351172	1	1.08134	1	
0.351953	1	1.08163	1	
0.352734	1	1.08191	1	
0.353516	1	1.08219	1	
0.354297	1	1.08247	1	
0.355078	1	1.08275	1	
0.355859	1	1.08302	1	
0.356641	1	1.08329	1	
0.357422	1	1.08356	1	
0.358203	1	1.08383	1	
0.358984	1	1.0841	1	
0.359766	1	1.08436	1	
0.360547	1	1.08463	1	
0.361328	1	1.08489	1	
0.362109	1	1.08515	1	
0.362891	1	1.0854	1	
0.363672	1	1.08566	1	
0.364453	1	1.08591	1	
0.365234	1	1.08616	1	
0.366016	1	1.08641	1	
0.366797	1	1.08665	1	
0.367578	1	1.0869	1	
0.368359	1	1.08714	1	
0.369141	1	1.08738	1	
0.369922	1	1.08762	1	
0.370703	1	1.08785	1	
0.371484	1	1.08809	1	
0.372266	1	1.08832	1	
0.373047	1	1.08855	1	
0.373828	1	1.08878	1	
0.374609	1	1.089	1	
0.375391	1	1.08922	1	
0.376172	1	1.08944	1	
0.376953	1	1.08966	1	
0.377734	1	1.08988	1	
0.378516	1	1.09009	1	
0.379297	1	1.09031	1	
0.380078	1	1.09051	1	
0.380859	1	1.09072	1	
0.381641	1	1.09093	1	
0.382422	1	1.09113	1	
0.383203	1	1.09133	1	
0.383984	1	1.09153	1	
0.384766	1	1.09173	1	
0.385547	1	1.09192	1	
0.386328	1	1.09212	1	
0.387109	1	1.09231	1	
0.387891	1	1.09249	1	
0.388672	1	1.09268	1	
0.389453	1	1.09286	1	
0.390234	1	1.09304	1	
0.391016	1	1.09322	1	
0.391797	1	1.0934	1	
0.392578	1	1.09357	1	
0.393359	1	1.09374	1	
0.394141	1	1.09391	1	
0.394922	1	1.09408	1	
0.395703	1	1.09425	1	
0.396484	1	1.09441	1	
0.397266	1	1.09457	1	
0.398047	1	1.09473	1	
0.398828	1	1.09489	1	
0.399609	1	1.09504	1	
0.400391	1	1.0952	1	
0.401172	1	1.09535	1	
0.401953	1	1.09549	1	
0.402734	1	1.09564	1	
0.403516	1	1.09578	1	
0.404297	1	1.09592	1	
0.405078	1	1.09605	1	
0.405859	1	1.09619	1	
0.406641	1	1.09632	1	
0.407422	1	1.09645	1	
0.408203	1	1.09658	1	
0.408984	1	1.09671	1	
0.409766	1	1.09683	1	
0.410547	1	1.09695	1	
0.411328	1	1.09708	1	
0.412109	1	1.09719	1	
0.412891	1	1.09731	1	
0.413672	1	1.09742	1	
0.414453	1	1.09753	1	
0.415234	1	1.09764	1	
0.416016	1	1.09775	1	
0.416797	1	1.09785	1	
0.417578	1	1.09795	1	
0.418359	1	1.09805	1	
0.419141	1	1.09814	1	
0.419922	1	1.09823	1	
0.420703	1	1.09832	1	
0.421484	1	1.09841	1	
0.422266	1	1.09849	1	
0.423047	1	1.09857	1	
0.423828	1	1.09866	1	
0.424609	1	1.09873	1	
0.425391	1	1.09881	1	
0.426172	1	1.09889	1	
0.426953	1	1.09896	1	
0.427734	1	1.09903	1	
0.428516	1	1.0991	1	
0.429297	1	1.09917	1	
0.430078	1	1.09923	1	
0.430859	1	1.0993	1	
0.431641	1	1.09936	1	
0.432422	1	1.09942	1	
0.433203	1	1.09947	1	
0.433984	1	1.09953	1	
0.434766	1	1.09958	1	
0.435547	1	1.09962	1	
0.436328	1	1.09966	1	
0.437109	1	1.0997	1	
0.437891	1	1.09974	1	
0.438672	1	1.09977	1	
0.439453	1	1.0998	1	
0.440234	1	1.09983	1	
0.441016	1	1.09985	1	
0.441797	1	1.09987	1	
0.442578	1	1.09989	1	
0.443359	1	1.0999	1	
0.444141	1	1.09991	1	
0.444922	1	1.09992	1	
0.445703	1	1.09993	1	
0.446484	1	1.09993	1	
0.447266	1	1.09994	1	
0.448047	1	1.09994	1	
0.448828	1	1.09994	1	
0.449609	1	1.09994	1	
0.450391	1	1.09994	1	
0.451172	1	1.09994	1	
0.451953	1	1.09994	1	
0.452734	1	1.09994	1	
0.453516	1	1.09994	1	
0.454297	1	1.09994	1	
0.455078	1	1.09993	1	
0.455859	1	1.09993	1	
0.456641	1	1.09992	1	
0.457422	1	1.0999	1	
0.458203	1	1.09989	1	
0.458984	1	1.09987	1	
0.459766	1	1.09984	1	
0.460547	1	1.09981	1	
0.461328	1	1.09978	1	
0.462109	1	1.09974	1	
0.462891	1	1.0997	1	
0.463672	1	1.09966	1	
0.464453	1	1.09961	1	
0.465234	1	1.09956	1	
0.466016	1	1.09951	1	
0.466797	1	1.09946	1	
0.467578	1	1.0994	1	
0.468359	1	1.09934	1	
0.469141	1	1.09928	1	
0.469922	1	1.09922	1	
0.470703	1	1.09916	1	
0.471484	1	1.0991	1	
0.472266	1	1.09903	1	
0.473047	1	1.09896	1	
0.473828	1	1.09889	1	
0.474609	1	1.09882	1	
0.475391	1	1.09875	1	
0.476172	1	1.09867	1	
0.476953	1	1.09859	1	
0.477734	1	1.0985	1	
0.478516	1	1.09842	1	
0.479297	1	1.09833	1	
0.480078	1	1.09824	1	
0.480859	1	1.09814	1	
0.481641	1	1.09804	1	
0.482422	1	1.09795	1	
0.483203	1	1.09784	1	
0.483984	1	1.09774	1	
0.484766	1	1.09764	1	
0.485547	1	1.09753	1	
0.486328	1	1.09742	1	
0.487109	1	1.09731	1	
0.487891	1	1.09719	1	
0.488672	1	1.09708	1	
0.489453	1	1.09696	1	
0.490234	1	1.09684	1	
0.491016	1	1.09671	1	
0.491797	1	1.09659	1	
0.492578	1	1.09646	1	
0.493359	1	1.09633	1	
0.494141	1	1.09619	1	
0.494922	1	1.09606	1	
0.495703	1	1.09592	1	
0.496484	1	1.09578	1	
0.497266	1	1.09564	1	
0.498047	1	1.09549	1	
0.498828	1	1.09535	1	
0.499609	1	1.0952	1	
